name,cutname,mass_X_d,mass_pi_d,tau_pi_d,acceptance,xsec_fb,sigma-2,sigma-1,sigma0,sigma1,sigma2,observed,observed_err
mass_X_d_400_mass_pi_d_1_tau_pi_d_1,cut1,400.0,1.0,1.0,0.0007259137,5506.11,1655.4835200119016,2222.128032388687,3150.95748046875,4545.10089245081,6374.767173725366,1708.2083738920649,7.270337188624074
mass_X_d_400_mass_pi_d_1_tau_pi_d_2,cut5,400.0,1.0,2.0,0.0024195896,5506.11,151.54489002227783,204.3305981093645,298.4268603515625,443.5510054598003,644.7044808342307,197.12005242050185,1.8151568651381378
mass_X_d_400_mass_pi_d_1_tau_pi_d_5,cut1,400.0,1.0,5.0,0.0314220088,5506.11,38.56360610961914,49.19695338249206,72.5903173828125,98.05294840263203,134.47464474705978,38.015237669553706,1.369287419034288
mass_X_d_400_mass_pi_d_1_tau_pi_d_25,cut2,400.0,1.0,25.0,0.0307172576,5506.11,19.65987762451172,25.394008598327634,34.9508935546875,50.55425893303938,69.71017558632418,62.48221901479426,1.2002039443176504
mass_X_d_400_mass_pi_d_1_tau_pi_d_45,cut6,400.0,1.0,45.0,0.012034395,5506.11,23.944722747802732,35.81731444358825,51.0820751953125,78.77376060973853,114.66096921002492,50.73448075281581,1.7605512374639474
mass_X_d_400_mass_pi_d_1_tau_pi_d_60,cut2,400.0,1.0,60.0,0.0163897468,5506.11,35.7070426940918,45.55273461341858,67.2132568359375,99.36305103957652,140.3875263088569,120.84982458038604,2.440853033922014
mass_X_d_400_mass_pi_d_1_tau_pi_d_100,cut6,400.0,1.0,100.0,0.0049900622,5506.11,59.60975715637207,82.35855652570724,115.60680175781249,176.43420435044914,255.78055348087102,118.99438250090103,2.6503001656006058
mass_X_d_400_mass_pi_d_2_tau_pi_d_1,cut1,400.0,2.0,1.0,0.0011445977,5506.11,1052.213033695221,1404.8476482367514,1973.3812207031249,2830.7732819241282,3932.840304842591,1078.0104217428113,4.248200796948432
mass_X_d_400_mass_pi_d_2_tau_pi_d_2,cut5,400.0,2.0,2.0,0.0035848651,5506.11,102.39519596099854,138.0612149387598,201.6397705078125,299.696626419425,434.3866764450073,132.16788816946018,1.0632344007764227
mass_X_d_400_mass_pi_d_2_tau_pi_d_5,cut8,400.0,2.0,5.0,0.005201169,5506.11,31.5062141418457,42.66466498374939,67.2132568359375,103.649690950457,158.73969092790037,45.37190287520947,1.2887251208156276
mass_X_d_400_mass_pi_d_2_tau_pi_d_25,cut6,400.0,2.0,25.0,0.0236973568,5506.11,13.610684509277343,16.25720649719238,24.1967724609375,38.08548238773364,58.05050210625864,26.247503763941808,2.5714908273818544
mass_X_d_400_mass_pi_d_2_tau_pi_d_45,cut6,400.0,2.0,45.0,0.0144744421,5506.11,22.684474182128906,29.3007791519165,40.3279541015625,63.475801415573805,94.90222442915663,41.66338608540687,2.403903928274495
mass_X_d_400_mass_pi_d_2_tau_pi_d_60,cut6,400.0,2.0,60.0,0.0143525929,5506.11,22.684474182128906,29.3007791519165,40.3279541015625,63.475801415573805,94.90222442915663,41.881204808403545,2.530961053380704
mass_X_d_400_mass_pi_d_2_tau_pi_d_100,cut6,400.0,2.0,100.0,0.0075616312,5506.11,41.420169525146484,52.84117215156555,77.9673779296875,115.26113592401146,166.65659128837285,79.20517822745771,1.3043365426316722
mass_X_d_400_mass_pi_d_2_tau_pi_d_150,cut7,400.0,2.0,150.0,0.0037596838,5506.11,70.69994453430175,93.53013495683669,137.1150439453125,209.259166877456,308.23532324831933,163.24154265667073,2.5974764762346134
mass_X_d_400_mass_pi_d_5_tau_pi_d_1,cut1,400.0,5.0,1.0,0.0006779431,5506.11,1779.7860368728636,2388.9770659303663,3387.54814453125,4886.371281189322,6938.022798943519,1836.3718550508352,6.282422463116107
mass_X_d_400_mass_pi_d_5_tau_pi_d_2,cut1,400.0,5.0,2.0,0.0064863837,5506.11,184.0593030166626,245.53744430959225,341.4433447265625,485.71017621092494,664.8634529916196,188.75233008894764,2.514268091986234
mass_X_d_400_mass_pi_d_5_tau_pi_d_5,cut6,400.0,5.0,5.0,0.0059022822,5506.11,51.2921166229248,67.8551959490776,99.47562011718749,148.6433646136522,218.35549908243118,101.81430508752902,2.323410157170894
mass_X_d_400_mass_pi_d_5_tau_pi_d_25,cut6,400.0,5.0,25.0,0.0181265565,5506.11,15.29101593017578,22.663470039367674,34.9508935546875,50.55425893303938,73.19306859092787,33.18881740311598,1.3434036391260082
mass_X_d_400_mass_pi_d_5_tau_pi_d_45,cut6,400.0,5.0,45.0,0.01567502,5506.11,17.64347991943359,26.15015773773193,40.3279541015625,58.33183762488886,84.45354028738103,38.595083680670584,0.8296207646045696
mass_X_d_400_mass_pi_d_5_tau_pi_d_60,cut6,400.0,5.0,60.0,0.0125596311,5506.11,24.28078903198242,32.314873638153074,45.7050146484375,70.48178553882055,102.59139188434928,46.94021221128457,1.3380838646003117
mass_X_d_400_mass_pi_d_5_tau_pi_d_100,cut7,400.0,5.0,100.0,0.007636369,5506.11,35.7070426940918,45.55273461341858,67.2132568359375,99.36305103957652,146.95143373696132,78.54035054303493,2.7096883365946307
mass_X_d_400_mass_pi_d_5_tau_pi_d_150,cut6,400.0,5.0,150.0,0.005326142,5506.11,56.83721031188964,75.19089280843734,110.22974121093749,164.71291837641968,241.96148900449273,112.65614629465928,2.519801485516985
mass_X_d_400_mass_pi_d_5_tau_pi_d_225,cut7,400.0,5.0,225.0,0.002277112,5506.11,116.04788875579834,156.46937693059442,228.5250732421875,346.94347642242906,518.2089181456714,268.79571775983504,2.5020213275634418
mass_X_d_400_mass_pi_d_10_tau_pi_d_1,cut1,400.0,10.0,1.0,0.0012924342,5506.11,931.7962832450867,1247.2614416527747,1747.544677734375,2506.8155578565597,3504.6918587976693,953.3186764485027,3.705658853863985
mass_X_d_400_mass_pi_d_10_tau_pi_d_2,cut1,400.0,10.0,2.0,0.0076125639,5506.11,157.97215770721434,210.73686165153978,293.0497998046875,416.86934445329007,570.6308279163391,160.67329260645704,1.4434841696514764
mass_X_d_400_mass_pi_d_10_tau_pi_d_5,cut6,400.0,10.0,5.0,0.0063988594,5506.11,45.578989791870114,62.25759190320968,94.09855957031249,137.6079438970238,200.2698860602453,92.44649034701999,2.6766590389845843
mass_X_d_400_mass_pi_d_10_tau_pi_d_25,cut6,400.0,10.0,25.0,0.0129863281,5506.11,24.28078903198242,32.314873638153074,45.7050146484375,70.48178553882055,106.87266794431955,46.88825819591589,1.3226865755874289
mass_X_d_400_mass_pi_d_10_tau_pi_d_45,cut6,400.0,10.0,45.0,0.0138409997,5506.11,22.684474182128906,29.3007791519165,40.3279541015625,63.475801415573805,91.20499276265501,42.142659000118684,2.633704978948305
mass_X_d_400_mass_pi_d_10_tau_pi_d_60,cut7,400.0,10.0,60.0,0.012007555,5506.11,22.684474182128906,29.3007791519165,40.3279541015625,63.475801415573805,94.90222442915663,49.634626942463605,2.486127922881305
mass_X_d_400_mass_pi_d_10_tau_pi_d_100,cut7,400.0,10.0,100.0,0.0082349008,5506.11,32.85047927856445,41.90851584434509,61.8361962890625,95.35771075157449,137.35203795455396,73.97186409729926,2.459190264894376
mass_X_d_400_mass_pi_d_10_tau_pi_d_150,cut7,400.0,10.0,150.0,0.0054999637,5506.11,48.51956977844238,64.18734751939773,94.09855957031249,140.60859286023302,206.5525041214004,109.80632358581721,2.668317530993904
mass_X_d_400_mass_pi_d_10_tau_pi_d_225,cut7,400.0,10.0,225.0,0.0037653435,5506.11,70.69994453430175,93.53013495683669,137.1150439453125,209.259166877456,308.23532324831933,162.9778987249429,2.6154520366433878
mass_X_d_600_mass_pi_d_1_tau_pi_d_1,cut5,600.0,1.0,1.0,0.001159236,523.797,315.6840821456909,430.11862530148034,624.0550195312501,930.0187758747339,1357.1417092959882,411.6073254854138,1.5945509804609284
mass_X_d_600_mass_pi_d_1_tau_pi_d_2,cut5,600.0,1.0,2.0,0.0165628277,523.797,21.856512010574342,29.84023911367357,42.71196240234375,62.971916316702966,89.89230651850998,28.404423029568566,0.14586295750145098
mass_X_d_600_mass_pi_d_1_tau_pi_d_5,cut5,600.0,1.0,5.0,0.0645742767,523.797,5.670684379577637,7.834780785799027,10.99769091796875,16.43351147124544,23.476241745393725,7.294715994525638,0.09441110651403947
mass_X_d_600_mass_pi_d_1_tau_pi_d_25,cut6,600.0,1.0,25.0,0.1058771843,523.797,2.8533253326416017,3.954792832374573,5.3709653320312505,8.282575872682035,12.055894285395743,5.582943704702655,0.11901522866491263
mass_X_d_600_mass_pi_d_1_tau_pi_d_45,cut6,600.0,1.0,45.0,0.0742747464,523.797,4.212051681518555,5.373462990760803,7.92856787109375,11.721001178272068,16.94744768336043,8.083860106403941,0.23940447918778732
mass_X_d_600_mass_pi_d_1_tau_pi_d_60,cut6,600.0,1.0,60.0,0.0546689858,523.797,5.327006538391114,7.276304293870926,10.99769091796875,16.08281384312175,23.270756629899147,10.971111731351664,0.23906264683943404
mass_X_d_600_mass_pi_d_1_tau_pi_d_100,cut6,600.0,1.0,100.0,0.0302925156,523.797,9.692913997650146,13.286888805806637,19.69353955078125,29.27045291081071,42.90357185281813,19.802117945131997,0.1358237643211118
mass_X_d_600_mass_pi_d_2_tau_pi_d_1,cut1,600.0,2.0,1.0,0.0074751344,523.797,159.90011186599733,213.1918132186532,297.704935546875,417.55805565422776,568.065128673792,162.3532988895683,0.6759897427998532
mass_X_d_600_mass_pi_d_2_tau_pi_d_2,cut5,600.0,2.0,2.0,0.0187789315,523.797,19.46075775718689,26.79507798023522,38.619798339843754,58.17019862987102,85.02554043214023,25.44936288348201,0.20121440832460813
mass_X_d_600_mass_pi_d_2_tau_pi_d_5,cut5,600.0,2.0,5.0,0.0576574376,523.797,6.461942665100098,8.548611650705338,12.53225244140625,18.32692801524326,26.208746739584953,8.24857245483514,0.24107482843968553
mass_X_d_600_mass_pi_d_2_tau_pi_d_25,cut6,600.0,2.0,25.0,0.1098340333,523.797,2.8533253326416017,3.6400878324508668,5.3709653320312505,7.940033197875135,11.48052932760492,5.435327514004406,0.11945366649069479
mass_X_d_600_mass_pi_d_2_tau_pi_d_45,cut6,600.0,2.0,45.0,0.0996503973,523.797,3.1250706024169923,3.9867628641128543,5.88248583984375,8.696227184213699,12.573913584144787,6.0105302003298675,0.23274823348090537
mass_X_d_600_mass_pi_d_2_tau_pi_d_60,cut6,600.0,2.0,60.0,0.0672572717,523.797,4.3359355545043945,5.92257326245308,8.95160888671875,13.090662589274347,18.610144953511657,8.779024077300608,0.2548637519532875
mass_X_d_600_mass_pi_d_2_tau_pi_d_100,cut6,600.0,2.0,100.0,0.0460258918,523.797,6.318077522277832,8.630035325288773,13.04377294921875,19.07496509696916,27.921906472552568,13.056759342142227,0.24788834146351393
mass_X_d_600_mass_pi_d_2_tau_pi_d_150,cut7,600.0,2.0,150.0,0.0199398049,523.797,12.96584599685669,17.773370740234853,26.34330615234375,39.99402578321099,59.26664739659429,30.817931191566075,0.20578470222279208
mass_X_d_600_mass_pi_d_5_tau_pi_d_1,cut1,600.0,5.0,1.0,0.0043457542,523.797,274.7424602508545,366.3089708313346,511.5205078125,721.5315838598013,985.3914952601195,280.27838196174173,0.8626949284100031
mass_X_d_600_mass_pi_d_5_tau_pi_d_2,cut1,600.0,5.0,2.0,0.0356443688,523.797,33.259822706222536,44.54494731286168,62.14974169921875,86.67516597117483,117.44903772313893,34.00904421365828,0.18929355997942587
mass_X_d_600_mass_pi_d_5_tau_pi_d_5,cut8,600.0,5.0,5.0,0.0193114373,523.797,8.653887966156006,12.069779706895352,18.15897802734375,28.726817975364625,44.24946257738024,12.27609478361831,0.0983745207885035
mass_X_d_600_mass_pi_d_5_tau_pi_d_25,cut6,600.0,5.0,25.0,0.0892758191,523.797,3.396815872192383,4.708086705207825,6.3940063476562505,9.860209325781092,14.202519763933495,6.578506007908291,0.25689262515552014
mass_X_d_600_mass_pi_d_5_tau_pi_d_45,cut6,600.0,5.0,45.0,0.0716360096,523.797,4.088167808532715,5.584140504598618,8.44008837890625,12.07348424212821,17.8074364637509,8.35827110306847,0.23724916469814367
mass_X_d_600_mass_pi_d_5_tau_pi_d_60,cut6,600.0,5.0,60.0,0.0700577665,523.797,4.351920570373536,5.629473010540009,8.44008837890625,12.611764821672812,18.118631082382056,8.548151277710392,0.23656736483764018
mass_X_d_600_mass_pi_d_5_tau_pi_d_100,cut7,600.0,5.0,100.0,0.0399603672,523.797,6.318077522277832,9.05039128947258,13.04377294921875,19.490909181162717,28.78953847891465,15.327421613542503,0.2616848778683894
mass_X_d_600_mass_pi_d_5_tau_pi_d_150,cut6,600.0,5.0,150.0,0.0299469925,523.797,10.000625553131105,13.484016521036626,19.69353955078125,29.898448221143337,43.720454555869104,20.132634514545128,0.17782575997485545
mass_X_d_600_mass_pi_d_5_tau_pi_d_225,cut7,600.0,5.0,225.0,0.0149862109,523.797,17.38270569419861,23.86593309478462,35.03915478515625,53.61494132076949,80.08194792428613,41.28050843641616,0.20301656233100376
mass_X_d_600_mass_pi_d_10_tau_pi_d_1,cut1,600.0,10.0,1.0,0.0054190164,523.797,220.89293804168702,294.5124281587601,411.26248828125,580.1113991678953,792.2547264726162,224.71203655459277,0.5013200733154383
mass_X_d_600_mass_pi_d_10_tau_pi_d_2,cut1,600.0,10.0,2.0,0.0375613999,523.797,31.89110572242737,42.49540758530796,59.59213916015625,84.53350166241825,116.63345068055392,32.62981309072314,0.19103909619199957
mass_X_d_600_mass_pi_d_10_tau_pi_d_5,cut6,600.0,10.0,5.0,0.0303571452,523.797,9.692913997650146,13.286888805806637,19.69353955078125,29.584449590329083,43.07774062069506,19.807880552361112,0.1381985173999206
mass_X_d_600_mass_pi_d_10_tau_pi_d_25,cut6,600.0,10.0,25.0,0.0790209897,523.797,3.940306411743164,5.026787959098816,7.417047363281251,10.964807679757476,15.854064402468504,7.572195613559474,0.1388047562701443
mass_X_d_600_mass_pi_d_10_tau_pi_d_45,cut7,600.0,10.0,45.0,0.0578870849,523.797,4.615673332214356,6.106151179075241,8.95160888671875,13.376114736976103,19.649368065889927,10.390048810227807,0.25430890608348833
mass_X_d_600_mass_pi_d_10_tau_pi_d_60,cut7,600.0,10.0,60.0,0.0574679525,523.797,4.615673332214356,6.106151179075241,8.95160888671875,13.376114736976103,19.649368065889927,10.477572768909846,0.2540913607536297
mass_X_d_600_mass_pi_d_10_tau_pi_d_100,cut7,600.0,10.0,100.0,0.0401411956,523.797,6.318077522277832,9.05039128947258,13.04377294921875,19.490909181162717,28.47433199594915,15.109226047278126,0.10386561305146107
mass_X_d_600_mass_pi_d_10_tau_pi_d_150,cut7,600.0,10.0,150.0,0.0280373839,523.797,9.189385997772217,12.892945582687855,18.670498535156252,28.345281091466546,41.8934640263021,21.950629085562564,0.20849520827393733
mass_X_d_600_mass_pi_d_10_tau_pi_d_225,cut6,600.0,10.0,225.0,0.0200669166,523.797,14.728193996429445,20.189168704926967,29.92394970703125,44.952994502618914,66.35503409180045,30.12659727974782,0.1950999889865999
mass_X_d_600_mass_pi_d_10_tau_pi_d_300,cut7,600.0,10.0,300.0,0.010956415,523.797,23.584891851425173,32.47350510187447,46.804126464843755,70.1245318671763,101.99405625714363,54.94752835768261,0.18141983078299323
mass_X_d_800_mass_pi_d_1_tau_pi_d_1,cut5,800.0,1.0,1.0,0.0025179433,85.0014,145.79265393676758,198.64206135149004,288.207871875,427.2137552676201,620.2226223752975,188.724796653991,0.855025959114474
mass_X_d_800_mass_pi_d_1_tau_pi_d_2,cut5,800.0,1.0,2.0,0.0425021544,85.0014,8.589990951919557,11.720086548650265,16.850863476562502,24.84388649543524,35.87705992262364,11.132768935771992,0.037328006178389654
mass_X_d_800_mass_pi_d_1_tau_pi_d_5,cut5,800.0,1.0,5.0,0.1828861602,85.0014,1.9902747848510742,2.720607624936104,3.8599268554687503,5.6754550055354835,8.114470302441717,2.560194582196727,0.030025262819101364
mass_X_d_800_mass_pi_d_1_tau_pi_d_25,cut6,800.0,1.0,25.0,0.2448172814,85.0014,1.219845835876465,1.6137543870449067,2.36576162109375,3.5350848524920644,5.107247252943367,2.4139251977152347,0.01462675042463204
mass_X_d_800_mass_pi_d_1_tau_pi_d_45,cut6,800.0,1.0,45.0,0.2037085711,85.0014,1.4542819175720216,1.9608334797263147,2.86381669921875,4.256482958178967,6.169436635145545,2.919341616416329,0.04227821708978819
mass_X_d_800_mass_pi_d_1_tau_pi_d_60,cut6,800.0,1.0,60.0,0.1630245351,85.0014,1.8336598091125489,2.472355257046223,3.61089931640625,5.309296822375059,7.679564442564548,3.6321220458191106,0.015532886897383134
mass_X_d_800_mass_pi_d_1_tau_pi_d_100,cut6,800.0,1.0,100.0,0.0973764353,85.0014,3.032591222763062,4.175506386235356,6.018165527343751,8.96877163233608,13.014890930271148,6.093938626037205,0.03294150010669434
mass_X_d_800_mass_pi_d_2_tau_pi_d_1,cut5,800.0,2.0,1.0,0.006742622,85.0014,53.99422884063721,73.66911689622403,105.91971328125001,155.31717706825734,222.41572018032076,69.85089408985395,0.20947074980919736
mass_X_d_800_mass_pi_d_2_tau_pi_d_2,cut5,800.0,2.0,2.0,0.0582942449,85.0014,6.2414958887100225,8.515826576641203,12.24385400390625,18.051592223373056,25.768617572826148,8.094902297747264,0.03643744913909076
mass_X_d_800_mass_pi_d_2_tau_pi_d_5,cut8,800.0,2.0,5.0,0.0942525823,85.0014,1.7603782676696778,2.455240693509579,3.69390849609375,5.725830998799205,8.608299304394425,2.4666919194205175,0.03220175694595228
mass_X_d_800_mass_pi_d_2_tau_pi_d_25,cut8,800.0,2.0,25.0,0.1554447816,85.0014,1.0655006423950195,1.455396542787552,2.19974326171875,3.4273012274600565,5.185613638622314,1.4868087439420827,0.039954882581837915
mass_X_d_800_mass_pi_d_2_tau_pi_d_45,cut6,800.0,2.0,45.0,0.2385876535,85.0014,1.2626474441528321,1.6703773479938508,2.4487708007812503,3.6591230063773694,5.227273389362544,2.4701417922319537,0.03220212864098286
mass_X_d_800_mass_pi_d_2_tau_pi_d_60,cut6,800.0,2.0,60.0,0.1857745789,85.0014,1.5807412147521973,2.1792189583182338,3.1128442382812502,4.676243531285227,6.734215331925452,3.1975514735841952,0.040888745157707254
mass_X_d_800_mass_pi_d_2_tau_pi_d_100,cut7,800.0,2.0,100.0,0.1093913408,85.0014,2.3816500968933108,3.2112200465083123,4.69001865234375,7.0455402875795965,10.230781333538891,5.514716461896326,0.026253514508220388
mass_X_d_800_mass_pi_d_2_tau_pi_d_150,cut7,800.0,2.0,150.0,0.0741966789,85.0014,3.492708511734009,4.809031493112445,6.93126650390625,10.44006361733079,15.218360586744547,8.163201664513208,0.031060822914932767
mass_X_d_800_mass_pi_d_5_tau_pi_d_1,cut5,800.0,5.0,1.0,0.0050761651,85.0014,72.10514572448731,97.83770770483018,141.4476421875,207.97797976355554,299.091579127264,93.07620586555065,0.24607807725985165
mass_X_d_800_mass_pi_d_5_tau_pi_d_2,cut5,800.0,5.0,2.0,0.0479527155,85.0014,7.595583132362366,10.363328004339337,14.90014775390625,21.967869716584683,31.54145155699253,9.832840388776894,0.039645243859155174
mass_X_d_800_mass_pi_d_5_tau_pi_d_5,cut8,800.0,5.0,5.0,0.0678207774,85.0014,2.4328823249816898,3.3931978123784066,5.10506455078125,7.994623392690719,12.170938515517117,3.4409847532078905,0.03170595621831031
mass_X_d_800_mass_pi_d_5_tau_pi_d_25,cut6,800.0,5.0,25.0,0.2335772432,85.0014,1.226330928039551,1.756669605588913,2.53177998046875,3.702426829310507,5.357164275594056,2.538686754045654,0.023968916828029076
mass_X_d_800_mass_pi_d_5_tau_pi_d_45,cut6,800.0,5.0,45.0,0.2139183685,85.0014,1.3910522689819336,1.9219178602695466,2.69779833984375,4.052744351559878,5.8363194899082185,2.7739485414552134,0.015183187768796323
mass_X_d_800_mass_pi_d_5_tau_pi_d_60,cut6,800.0,5.0,60.0,0.1950305941,85.0014,1.5385881156921388,2.074504985797405,3.02983505859375,4.454927095024288,6.425184857609868,3.0465391157020196,0.03193539534478552
mass_X_d_800_mass_pi_d_5_tau_pi_d_100,cut7,800.0,5.0,100.0,0.1270212157,85.0014,2.044425304412842,2.8184565194249154,4.02594521484375,6.047941853342951,8.782175138229132,4.73419261975305,0.030467605210161074
mass_X_d_800_mass_pi_d_5_tau_pi_d_150,cut7,800.0,5.0,150.0,0.0902481094,85.0014,2.8652758449554443,3.9451336200982334,5.68612880859375,8.519273048472405,12.391030130660534,6.675702344034513,0.030897342597196734
mass_X_d_800_mass_pi_d_5_tau_pi_d_225,cut7,800.0,5.0,225.0,0.0465789957,85.0014,5.583340097808838,7.639158645191789,11.123230078125001,16.665439238861204,24.373438657307627,13.034203447428036,0.06118276082009952
mass_X_d_800_mass_pi_d_10_tau_pi_d_1,cut5,800.0,10.0,1.0,0.0053656473,85.0014,68.04288399353028,92.3257238867283,133.4787609375,196.79295891666413,282.55518182287216,87.82433344041635,0.2845550719863657
mass_X_d_800_mass_pi_d_10_tau_pi_d_2,cut5,800.0,10.0,2.0,0.0330065322,85.0014,11.04362557182312,15.089046329069138,21.8314142578125,32.27392751737833,46.53176742435694,14.347279941719894,0.05128848531428509
mass_X_d_800_mass_pi_d_10_tau_pi_d_5,cut8,800.0,10.0,5.0,0.0544638533,85.0014,3.040697587966919,4.2598822484314445,6.43321142578125,9.997596038661898,15.153654059743882,4.29761896623214,0.03196413950276743
mass_X_d_800_mass_pi_d_10_tau_pi_d_25,cut6,800.0,10.0,25.0,0.2017554592,85.0014,1.4542819175720216,2.004881441652775,2.86381669921875,4.302143960119039,6.195477700053155,2.9476650472284684,0.04010164450648942
mass_X_d_800_mass_pi_d_10_tau_pi_d_45,cut7,800.0,10.0,45.0,0.1679701849,85.0014,1.5385881156921388,2.1211064527630805,3.02983505859375,4.5515435686782,6.627475401413441,3.586548342551613,0.033301871701345964
mass_X_d_800_mass_pi_d_10_tau_pi_d_60,cut7,800.0,10.0,60.0,0.1627542091,85.0014,1.5729591041564943,2.156186748182774,3.1958534179687503,4.699032867119461,6.855673381760717,3.694835645846143,0.025499614495076685
mass_X_d_800_mass_pi_d_10_tau_pi_d_100,cut7,800.0,10.0,100.0,0.1323921103,85.0014,1.9601191062927248,2.70223150831461,3.8599268554687503,5.798541928128898,8.420023272746802,4.556165567598334,0.02998123398962138
mass_X_d_800_mass_pi_d_10_tau_pi_d_150,cut7,800.0,10.0,150.0,0.0887053899,85.0014,2.9032136341094974,3.986025166073442,5.8521471679687505,8.721357133287192,12.655860015392305,6.799259275437674,0.033275427272887494
mass_X_d_800_mass_pi_d_10_tau_pi_d_225,cut7,800.0,10.0,225.0,0.0587091435,85.0014,4.3857057025909425,6.021442272153497,8.84047763671875,13.174815582928062,19.225518033608797,10.307311956455495,0.028701039610888903
mass_X_d_800_mass_pi_d_10_tau_pi_d_300,cut7,800.0,10.0,300.0,0.0348856197,85.0014,7.450073876953125,10.2147497297287,14.90014775390625,22.443011646813154,33.07220436406732,17.47490538838606,0.054615339046323985
mass_X_d_1000_mass_pi_d_1_tau_pi_d_1,cut5,1000.0,1.0,1.0,0.0028000388,18.45402,130.25436168640135,178.46521087022782,257.4912478125,381.6821477959442,555.6881451942444,169.42863874413152,0.7877661294261806
mass_X_d_1000_mass_pi_d_1_tau_pi_d_2,cut5,1000.0,1.0,2.0,0.0508359133,18.45402,7.184033184127808,9.774826760587692,14.0928160546875,20.777590663740636,30.004921847770213,9.289218404393047,0.026956123452938192
mass_X_d_1000_mass_pi_d_1_tau_pi_d_5,cut5,1000.0,1.0,5.0,0.243367194,18.45402,1.4950280618476868,2.0313490190479158,2.910472880859375,4.267821338630319,6.075761291377544,1.9285536630550537,0.005152796946159276
mass_X_d_1000_mass_pi_d_1_tau_pi_d_25,cut8,1000.0,1.0,25.0,0.2201995584,18.45402,0.7453229398727417,1.0506608823761343,1.576881591796875,2.4379974240320923,3.662568458972275,1.05996399066554,0.008001871081831513
mass_X_d_1000_mass_pi_d_1_tau_pi_d_45,cut8,1000.0,1.0,45.0,0.1908178575,18.45402,0.8702063302230835,1.2157131753847004,1.8111611425781249,2.800214363307953,4.227872150047124,1.2178011010759566,0.006954806725032019
mass_X_d_1000_mass_pi_d_1_tau_pi_d_60,cut8,1000.0,1.0,60.0,0.1437374286,18.45402,1.151246755886078,1.607028067806065,2.405870771484375,3.7388675401085614,5.611221389966011,1.6193009264672895,0.006564470179050352
mass_X_d_1000_mass_pi_d_1_tau_pi_d_100,cut6,1000.0,1.0,100.0,0.1504614358,18.45402,1.960014541053772,2.6854719187134504,3.87462333984375,5.774286081805229,8.332327686810494,3.933720155860471,0.01656596803024622
mass_X_d_1000_mass_pi_d_2_tau_pi_d_1,cut5,1000.0,2.0,1.0,0.0085377645,18.45402,42.64225727416992,58.05964066662312,83.3314340625,122.19446405339241,174.98368158433914,54.95859545920046,0.24302673187915633
mass_X_d_1000_mass_pi_d_2_tau_pi_d_2,cut5,1000.0,2.0,2.0,0.0835133214,18.45402,4.35451627784729,5.9412533795928955,8.5421928515625,12.525990162885188,17.93734049115658,5.626571224438896,0.014537676163929482
mass_X_d_1000_mass_pi_d_2_tau_pi_d_5,cut8,1000.0,2.0,5.0,0.167489535,18.45402,0.9914291025924683,1.3850662545427679,2.063462197265625,3.190293742163479,4.816829339985252,1.3885162056150944,0.004151180068308192
mass_X_d_1000_mass_pi_d_2_tau_pi_d_25,cut8,1000.0,2.0,25.0,0.2665395093,18.45402,0.6191020160293579,0.8649103685572743,1.288537529296875,2.00246459278509,3.005260942657292,0.8711231289803096,0.006970314336174761
mass_X_d_1000_mass_pi_d_2_tau_pi_d_45,cut8,1000.0,2.0,45.0,0.2307690732,18.45402,0.7112510340499878,1.0026306706103683,1.504795576171875,2.3145497372934223,3.471706499312818,1.0048564040390633,0.007818227028754817
mass_X_d_1000_mass_pi_d_2_tau_pi_d_60,cut8,1000.0,2.0,60.0,0.2069051476,18.45402,0.800936174583435,1.118939987294376,1.666989111328125,2.5906010860311985,3.887924978438616,1.1265806807222702,0.006895674570313585
mass_X_d_1000_mass_pi_d_2_tau_pi_d_100,cut8,1000.0,2.0,100.0,0.1161936388,18.45402,1.421375724105835,1.9885242984464764,2.9825588964843748,4.635075477438569,6.956233411148786,2.0078530314950203,0.005483414502943008
mass_X_d_1000_mass_pi_d_2_tau_pi_d_150,cut6,1000.0,2.0,150.0,0.1185745974,18.45402,2.487636305809021,3.403598710876107,4.95591357421875,7.346206370295882,10.57459809309125,5.0088631525467635,0.020610616203133685
mass_X_d_1000_mass_pi_d_5_tau_pi_d_1,cut5,1000.0,5.0,1.0,0.0057006502,18.45402,63.79274479614258,87.03810895334243,125.141323125,184.50074276195525,263.37449447639466,82.51005408228383,0.36675387887045857
mass_X_d_1000_mass_pi_d_5_tau_pi_d_2,cut5,1000.0,5.0,2.0,0.0648577031,18.45402,5.603913353347778,7.645916717623472,10.9931173828125,16.20758300089717,23.136297980360986,7.266896883932286,0.02782294535692995
mass_X_d_1000_mass_pi_d_5_tau_pi_d_5,cut8,1000.0,5.0,5.0,0.1286849512,18.45402,1.278699618473053,1.792929824104607,2.694214833984375,4.176232192770839,6.278609355044961,1.8140353766996715,0.006997207984712851
mass_X_d_1000_mass_pi_d_5_tau_pi_d_25,cut8,1000.0,5.0,25.0,0.2337603008,18.45402,0.7027330575942993,0.9906231176689267,1.486774072265625,2.286830703083128,3.447584148762524,0.9974772473909566,0.00544504753945603
mass_X_d_1000_mass_pi_d_5_tau_pi_d_45,cut8,1000.0,5.0,45.0,0.239093592,18.45402,0.6856971046829223,0.9666080117860436,1.450731064453125,2.231392359676212,3.364006179558635,0.9705434449678452,0.00695110667376369
mass_X_d_1000_mass_pi_d_5_tau_pi_d_60,cut8,1000.0,5.0,60.0,0.2051322073,18.45402,0.8095949440383912,1.1310366358056665,1.685010615234375,2.6051745363870262,3.933393417584896,1.1364263817831544,0.006894223407621878
mass_X_d_1000_mass_pi_d_5_tau_pi_d_100,cut8,1000.0,5.0,100.0,0.148251082,18.45402,1.121310644416809,1.5617797552143038,2.333784755859375,3.6268414104491473,5.443094749825001,1.5706375737393465,0.005779686949291075
mass_X_d_1000_mass_pi_d_5_tau_pi_d_150,cut7,1000.0,5.0,150.0,0.1513508722,18.45402,1.705161613254547,2.339621065657139,3.397053486328125,5.062571970781088,7.3464714571148155,3.97020006320803,0.014082958600742074
mass_X_d_1000_mass_pi_d_5_tau_pi_d_225,cut7,1000.0,5.0,225.0,0.0897209999,18.45402,2.8856581147384643,3.9481744826173784,5.74885974609375,8.56742944670856,12.502130149290561,6.707367985062643,0.02881013853305365
mass_X_d_1000_mass_pi_d_10_tau_pi_d_1,cut5,1000.0,10.0,1.0,0.0093481794,18.45402,38.951791177368165,52.85273277274132,76.4111765625,112.04682623030662,159.51225567907332,50.23089966160845,0.22236945927199253
mass_X_d_1000_mass_pi_d_10_tau_pi_d_2,cut8,1000.0,10.0,2.0,0.0277694927,18.45402,5.954910300521851,8.387508643015623,12.6510957421875,19.862273376595972,30.474569895186423,8.486136032791736,0.02217586196758243
mass_X_d_1000_mass_pi_d_10_tau_pi_d_5,cut8,1000.0,10.0,5.0,0.1185691848,18.45402,1.3898908896446227,1.9488366218599678,2.928494384765625,4.5277095410576464,6.836111684031486,1.9648463609105888,0.004550314768519481
mass_X_d_1000_mass_pi_d_10_tau_pi_d_25,cut8,1000.0,10.0,25.0,0.2052492444,18.45402,0.8095949440383912,1.124197450874448,1.685010615234375,2.6051745363870262,3.9137162210056187,1.135638002653063,0.0068940822543852535
mass_X_d_1000_mass_pi_d_10_tau_pi_d_45,cut8,1000.0,10.0,45.0,0.1948406227,18.45402,0.8528887913131714,1.1915198783621193,1.775118134765625,2.758640005533993,4.140114663663804,1.1971414458270078,0.00689033058185934
mass_X_d_1000_mass_pi_d_10_tau_pi_d_60,cut8,1000.0,10.0,60.0,0.1936561122,18.45402,0.8475386573410034,1.194751517673433,1.793139638671875,2.772351373755634,4.185803641844093,1.2049923460498637,0.006891329454834467
mass_X_d_1000_mass_pi_d_10_tau_pi_d_100,cut7,1000.0,10.0,100.0,0.2319737407,18.45402,1.1124406854629516,1.5316944636628032,2.207634228515625,3.3075998842817547,4.78420056240499,2.58749224555748,0.009990338697263046
mass_X_d_1000_mass_pi_d_10_tau_pi_d_150,cut7,1000.0,10.0,150.0,0.1505756579,18.45402,1.714207563457489,2.3520328484988213,3.415074990234375,5.0894293353366855,7.426814212185144,3.9930001176538923,0.014393068455692392
mass_X_d_1000_mass_pi_d_10_tau_pi_d_225,cut7,1000.0,10.0,225.0,0.1209793817,18.45402,2.142341475105286,2.9271084536790846,4.23505341796875,6.345191244354844,9.228893106365204,4.976243294119873,0.016356744891438006
mass_X_d_1000_mass_pi_d_10_tau_pi_d_300,cut7,1000.0,10.0,300.0,0.069528345,18.45402,3.7269314836120606,5.099209499031901,7.424859609375,11.124335358184576,16.1800161716187,8.695657002131261,0.028371974707674046
mass_X_d_1250_mass_pi_d_1_tau_pi_d_1,cut5,1250.0,1.0,1.0,0.0028340581,3.4749,129.2567783203125,176.72601944503785,254.53642499999998,379.3313640632629,553.5441574172974,167.82986567885442,0.7847525730869757
mass_X_d_1250_mass_pi_d_1_tau_pi_d_2,cut5,1250.0,1.0,2.0,0.0523848754,3.4749,7.002504629516602,9.501527247047424,13.736714062499999,20.36208432626724,29.561375178623198,9.050258950932161,0.040845144854286135
mass_X_d_1250_mass_pi_d_1_tau_pi_d_5,cut5,1250.0,1.0,5.0,0.2815241588,3.4749,1.2904813373565673,1.7607182952761649,2.5315189453125,3.732317244672775,5.327876665592194,1.6711397237327503,0.0038184213493893276
mass_X_d_1250_mass_pi_d_1_tau_pi_d_25,cut8,1250.0,1.0,25.0,0.2805515791,3.4749,0.5894474630355835,0.8228111162692309,1.23182490234375,1.9143298053503035,2.8729897014856336,0.8298274250604926,0.0018166076443711292
mass_X_d_1250_mass_pi_d_1_tau_pi_d_45,cut8,1250.0,1.0,45.0,0.2501911823,3.4749,0.6592718181610108,0.9202790769159793,1.3777435546874999,2.14109616304636,3.2133163257837296,0.931431142676663,0.0028339726222623833
mass_X_d_1250_mass_pi_d_1_tau_pi_d_60,cut8,1250.0,1.0,60.0,0.2061098776,3.4749,0.8021681728363037,1.119748444712162,1.6763677734375,2.5918118368685246,3.9132180812001227,1.1282777202616734,0.003455202202286664
mass_X_d_1250_mass_pi_d_1_tau_pi_d_100,cut8,1250.0,1.0,100.0,0.1318314902,3.4749,1.2517084396362304,1.7511574206411837,2.6265357421875,4.060855002558231,6.131236193704605,1.7641804996975954,0.005319023753624868
mass_X_d_1250_mass_pi_d_2_tau_pi_d_1,cut5,1250.0,2.0,1.0,0.0087113478,3.4749,41.95967200927734,56.93405673408508,82.31169375,121.35535222549439,175.24928238601683,54.19069036111809,0.2490526539383574
mass_X_d_1250_mass_pi_d_2_tau_pi_d_2,cut5,1250.0,2.0,2.0,0.0939868667,3.4749,3.88874268951416,5.2765398577451705,7.628491406249999,11.24698285624981,16.24176967663765,5.024741442700372,0.02212437906382691
mass_X_d_1250_mass_pi_d_2_tau_pi_d_5,cut8,1250.0,2.0,5.0,0.1970501603,3.4749,0.8407157238006592,1.1788102139174939,1.7713845703125,2.752837835150957,4.172558229625225,1.1866588470145871,0.004412325997013354
mass_X_d_1250_mass_pi_d_2_tau_pi_d_25,cut8,1250.0,2.0,25.0,0.3428039557,3.4749,0.48227519702911376,0.6732091422021389,1.00785673828125,1.566269831326604,2.374041744196415,0.6808026188487301,0.0026733009821313927
mass_X_d_1250_mass_pi_d_2_tau_pi_d_45,cut8,1250.0,2.0,45.0,0.3128976247,3.4749,0.5277422189712524,0.736676668319106,1.10287353515625,1.713931607106328,2.572236080163717,0.7437547320113579,0.0016529202314866014
mass_X_d_1250_mass_pi_d_2_tau_pi_d_60,cut8,1250.0,2.0,60.0,0.2843465768,3.4749,0.5781933809280395,0.8107143657088279,1.21825107421875,1.883523163998127,2.8295897389411926,0.8186935554297685,0.0016210733615447323
mass_X_d_1250_mass_pi_d_2_tau_pi_d_100,cut8,1250.0,2.0,100.0,0.18616889,3.4749,0.886606927871704,1.2376168110609054,1.8528275390625,2.8794050419449806,4.321356266713142,1.2483205204826242,0.005406383050886215
mass_X_d_1250_mass_pi_d_2_tau_pi_d_150,cut8,1250.0,2.0,150.0,0.1271680702,3.4749,1.294895482635498,1.8156386964797973,2.728339453125,4.218252669525146,6.36888133174181,1.8345323715857473,0.0061248180140440305
mass_X_d_1250_mass_pi_d_5_tau_pi_d_1,cut5,1250.0,5.0,1.0,0.0063416155,3.4749,57.348575463867185,78.24574897613525,112.4998875,165.86298023757934,237.45752692108152,74.19009070765368,0.3384301240240143
mass_X_d_1250_mass_pi_d_5_tau_pi_d_2,cut5,1250.0,5.0,2.0,0.0844716403,3.4749,4.320401028442383,5.882449646937847,8.44292109375,12.515036392021178,17.912140906620024,5.578956632802608,0.025070009906347182
mass_X_d_1250_mass_pi_d_5_tau_pi_d_5,cut8,1250.0,5.0,5.0,0.1819462753,3.4749,0.9051383846282959,1.2691405024766922,1.9071228515624998,2.9485794539451597,4.451879676067829,1.2795917591572261,0.005910674687115353
mass_X_d_1250_mass_pi_d_5_tau_pi_d_25,cut8,1250.0,5.0,25.0,0.3525273691,3.4749,0.46928461933135984,0.6550755633115768,0.98070908203125,1.5240806933552027,2.3100944241821764,0.6623115081498887,0.002971501656448056
mass_X_d_1250_mass_pi_d_5_tau_pi_d_45,cut8,1250.0,5.0,45.0,0.3254468518,3.4749,0.5082563524246215,0.709476299983263,1.0621520507812499,1.6464141565471888,2.4752433567702767,0.7160003179544889,0.002105504273071332
mass_X_d_1250_mass_pi_d_5_tau_pi_d_60,cut8,1250.0,5.0,60.0,0.3021764077,3.4749,0.5472280855178833,0.7638770366549492,1.1435950195312499,1.7772152105033396,2.667210831642151,0.7711529642043641,0.0020626150637603983
mass_X_d_1250_mass_pi_d_5_tau_pi_d_100,cut8,1250.0,5.0,100.0,0.2291369661,3.4749,0.7183126682281494,1.007182769215107,1.5134818359375,2.3399758596897122,3.5329864402770994,1.0179035180502525,0.003501145578749887
mass_X_d_1250_mass_pi_d_5_tau_pi_d_150,cut8,1250.0,5.0,150.0,0.1706712107,3.4749,0.9670822311401367,1.3529614180147647,2.0292873046874997,3.1374564886093137,4.7370535103201865,1.366789228578575,0.005263010072035364
mass_X_d_1250_mass_pi_d_5_tau_pi_d_225,cut8,1250.0,5.0,225.0,0.1000501643,3.4749,1.656298656463623,2.3120312049865723,3.4613261718749997,5.379108256387711,8.153274292087554,2.331506112303482,0.00815008341527519
mass_X_d_1250_mass_pi_d_10_tau_pi_d_1,cut5,1250.0,10.0,1.0,0.0099813495,3.4749,36.42409522705078,49.69662811145782,71.45263125,104.77578279075622,150.039952885437,47.034376282805184,0.21338441726335763
mass_X_d_1250_mass_pi_d_10_tau_pi_d_2,cut8,1250.0,10.0,2.0,0.048069351,3.4749,3.43741290435791,4.841606534528732,7.30271953125,11.40708178460598,17.397385951423644,4.886813852792965,0.01991045439396868
mass_X_d_1250_mass_pi_d_10_tau_pi_d_5,cut8,1250.0,10.0,5.0,0.1806843261,3.4749,0.9115806507110595,1.278173634892702,1.9206966796875,2.992533877211809,4.527797092652321,1.2920547784870406,0.006111755851142274
mass_X_d_1250_mass_pi_d_10_tau_pi_d_25,cut8,1250.0,10.0,25.0,0.3055144763,3.4749,0.5407327966690063,0.7548102472096682,1.13002119140625,1.7561206415176391,2.6355525121092795,0.7630331911438186,0.0020634734824795326
mass_X_d_1250_mass_pi_d_10_tau_pi_d_45,cut8,1250.0,10.0,45.0,0.3059240513,3.4749,0.5379292179107665,0.7542579094693065,1.1334146484375,1.7613943355441093,2.6434671955525872,0.7629485010215331,0.002065755070675495
mass_X_d_1250_mass_pi_d_10_tau_pi_d_60,cut8,1250.0,10.0,60.0,0.3069144025,3.4749,0.5363186513900756,0.7519996263653039,1.13002119140625,1.7561206415176391,2.661804166460037,0.7608658487757629,0.0020667146775225687
mass_X_d_1250_mass_pi_d_10_tau_pi_d_100,cut8,1250.0,10.0,100.0,0.2315797426,3.4749,0.7118704021453858,0.9981496367990971,1.4999080078125,2.3189896145582196,3.501300366640091,1.008625812658733,0.0044293583621898445
mass_X_d_1250_mass_pi_d_10_tau_pi_d_150,cut8,1250.0,10.0,150.0,0.170774635,3.4749,0.9670822311401367,1.3529614180147647,2.0292873046874997,3.1374564886093137,4.7370535103201865,1.3660713476993518,0.005274587588977982
mass_X_d_1250_mass_pi_d_10_tau_pi_d_225,cut8,1250.0,10.0,225.0,0.1075184728,3.4749,1.5393834571838378,2.1488292020916937,3.216997265625,4.99940642888546,7.50301468720436,2.1648453810725825,0.010071259524290608
mass_X_d_1250_mass_pi_d_10_tau_pi_d_300,cut7,1250.0,10.0,300.0,0.1170235882,3.4749,2.2075498443603516,3.0203826352715493,4.3979203125,6.554147018945217,9.510947072839736,5.148303736850706,0.016891452741485888
mass_X_d_1500_mass_pi_d_1_tau_pi_d_1,cut5,1500.0,1.0,1.0,0.0023428789,0.768744,157.05049542187498,214.87741415771484,312.878808,471.26662895214844,694.4623280244141,205.81896166299768,0.9631986452677382
mass_X_d_1500_mass_pi_d_1_tau_pi_d_2,cut5,1500.0,1.0,2.0,0.0513320388,0.768744,7.145603103515625,9.735862674476623,14.125671,21.051251103927612,30.719305721282957,9.282886886249765,0.043552900717876604
mass_X_d_1500_mass_pi_d_1_tau_pi_d_5,cut5,1500.0,1.0,5.0,0.2987488079,0.768744,1.2213148161621092,1.6640378446769715,2.414336625,3.578798200115204,5.180947657230377,1.5858293227475933,0.00724091320618779
mass_X_d_1500_mass_pi_d_1_tau_pi_d_25,cut8,1500.0,1.0,25.0,0.3067081843,0.768744,0.5373032118530273,0.7533801316337585,1.13209565625,1.7683697754478453,2.670850873889923,0.7621166967916659,0.0020558824668396977
mass_X_d_1500_mass_pi_d_1_tau_pi_d_45,cut8,1500.0,1.0,45.0,0.2943384236,0.768744,0.5601065311889648,0.7853538251953125,1.18014215625,1.8340116125392913,2.7798658648166654,0.792633001606608,0.0025479923239307978
mass_X_d_1500_mass_pi_d_1_tau_pi_d_60,cut8,1500.0,1.0,60.0,0.2539965399,0.768744,0.652369652709961,0.9106443333950043,1.3633194375,2.118680123634338,3.211346506462097,0.9195078227470251,0.0027739630804297314
mass_X_d_1500_mass_pi_d_1_tau_pi_d_100,cut8,1500.0,1.0,100.0,0.1708781472,0.768744,0.9684959161376953,1.3519258422775269,2.0239588125,3.145353316143036,4.720486514282227,1.3656522975503624,0.0057702642907097946
mass_X_d_1500_mass_pi_d_2_tau_pi_d_1,cut5,1500.0,2.0,1.0,0.0068331053,0.768744,53.37328032421875,73.12825099291992,105.510114,156.39881784521484,227.69984730541992,69.4401072567433,0.32282856807281735
mass_X_d_1500_mass_pi_d_2_tau_pi_d_2,cut5,1500.0,2.0,2.0,0.0966273475,0.768744,3.8036968901367185,5.182525722587585,7.51927725,11.205852731941222,16.26119628401184,4.9293112038293065,0.023093408561314258
mass_X_d_1500_mass_pi_d_2_tau_pi_d_5,cut8,1500.0,2.0,5.0,0.218478835,0.768744,0.761060782836914,1.0671220684375762,1.6035519375,2.5047995423469542,3.82016742036438,1.076108031797126,0.004324277431664542
mass_X_d_1500_mass_pi_d_2_tau_pi_d_25,cut8,1500.0,2.0,25.0,0.380362114,0.768744,0.43468827484130856,0.6094985106067657,0.91588640625,1.4306439028158187,2.181930852636337,0.617228892434351,0.0021271764694228965
mass_X_d_1500_mass_pi_d_2_tau_pi_d_45,cut8,1500.0,2.0,45.0,0.3422437049,0.768744,0.48314532843017577,0.677442655245781,1.01798521875,1.5820101540355682,2.3978996355342863,0.684060179416143,0.0018327526737479962
mass_X_d_1500_mass_pi_d_2_tau_pi_d_60,cut8,1500.0,2.0,60.0,0.3326664921,0.768744,0.49658216088867185,0.6947253117914199,1.04200846875,1.6193435880432128,2.4544872997283935,0.7018999297476576,0.0018614424877616235
mass_X_d_1500_mass_pi_d_2_tau_pi_d_100,cut8,1500.0,2.0,100.0,0.2360993908,0.768744,0.6983516546630859,0.9791943195018769,1.4714240625,2.2749509323368073,3.460583692989349,0.9896413052614582,0.00460169033010492
mass_X_d_1500_mass_pi_d_2_tau_pi_d_150,cut8,1500.0,2.0,150.0,0.1712509905,0.768744,0.9605898270263672,1.3468917954597472,2.0239588125,3.129218193534851,4.724614777244568,1.3625984839189451,0.005759293126108622
mass_X_d_1500_mass_pi_d_5_tau_pi_d_1,cut5,1500.0,5.0,1.0,0.0054676084,0.768744,66.86242904003906,91.35498871252442,132.1759215,196.97955332299804,285.84378379248045,86.92496744350721,0.4055615815280322
mass_X_d_1500_mass_pi_d_5_tau_pi_d_2,cut5,1500.0,5.0,2.0,0.0917873074,0.768744,3.973830297363281,5.414331610176086,7.85560275,11.644447864059448,16.76176228097534,5.1585195527594125,0.023859681476197964
mass_X_d_1500_mass_pi_d_5_tau_pi_d_5,cut8,1500.0,5.0,5.0,0.2025634634,0.768744,0.8180690811767578,1.147056302341461,1.7236681875,2.7061661804122923,4.112441619976043,1.1626746884529955,0.005412001672777658
mass_X_d_1500_mass_pi_d_5_tau_pi_d_25,cut8,1500.0,5.0,25.0,0.4019436795,0.768744,0.4118849555053711,0.5775248170452117,0.86783990625,1.35559369871521,2.0674688786258697,0.5844239966839793,0.0026562678869838994
mass_X_d_1500_mass_pi_d_5_tau_pi_d_45,cut8,1500.0,5.0,45.0,0.3833957566,0.768744,0.4318378599243164,0.6055018447322845,0.90988059375,1.4140089678697585,2.1432554215850828,0.6111738627615413,0.0022248725611228484
mass_X_d_1500_mass_pi_d_5_tau_pi_d_60,cut8,1500.0,5.0,60.0,0.3733070349,0.768744,0.44323951959228514,0.6214886915130615,0.93390384375,1.4513425851602555,2.19984308577919,0.6274303336437135,0.0019626302681984027
mass_X_d_1500_mass_pi_d_5_tau_pi_d_100,cut8,1500.0,5.0,100.0,0.301733773,0.768744,0.5458544566040039,0.7653703125400543,1.15011309375,1.7873446825675965,2.709131513677597,0.773909089658033,0.0022460543991828187
mass_X_d_1500_mass_pi_d_5_tau_pi_d_150,cut8,1500.0,5.0,150.0,0.2059125575,0.768744,0.8009665916748047,1.1230759405288695,1.6876333125,2.6092293461608884,3.9690777730064393,1.1317769165992013,0.005221642859500704
mass_X_d_1500_mass_pi_d_5_tau_pi_d_225,cut8,1500.0,5.0,225.0,0.129380487,0.768744,1.2765166787109374,1.7858644902534484,2.678592375,4.162693012687683,6.3095173179702755,1.806091103531823,0.006996334761745262
mass_X_d_1500_mass_pi_d_10_tau_pi_d_1,cut5,1500.0,10.0,1.0,0.0092350885,0.768744,39.67777564453125,53.83780411486816,77.83533,115.37618594458007,167.0275693267822,51.24511644234608,0.23680919890074528
mass_X_d_1500_mass_pi_d_10_tau_pi_d_2,cut8,1500.0,10.0,2.0,0.0493929488,0.768744,3.363489602050781,4.71611998361206,7.08685875,11.126397416130066,17.071167195648194,4.7692516362672475,0.011019280581421168
mass_X_d_1500_mass_pi_d_10_tau_pi_d_5,cut8,1500.0,10.0,5.0,0.2266567008,0.768744,0.7325566336669922,1.0271548598442077,1.5434938125,2.4109867643108367,3.6770902277755737,1.03678078588266,0.0036899646138567766
mass_X_d_1500_mass_pi_d_10_tau_pi_d_25,cut8,1500.0,10.0,25.0,0.402699507,0.768744,0.4118849555053711,0.5775248170452117,0.86783990625,1.35559369871521,2.0674688786258697,0.5836890926914107,0.002668109964336258
mass_X_d_1500_mass_pi_d_10_tau_pi_d_45,cut8,1500.0,10.0,45.0,0.3688803504,0.768744,0.44894034942626954,0.62948211490345,0.94591546875,1.4775502918338774,2.2534696322135925,0.6363294529061317,0.0018190222266071298
mass_X_d_1500_mass_pi_d_10_tau_pi_d_60,cut8,1500.0,10.0,60.0,0.3540951359,0.768744,0.46889325384521485,0.6534039178447724,0.98795615625,1.5353431324224471,2.3271651011123655,0.6618940705542465,0.0013996001907341448
mass_X_d_1500_mass_pi_d_10_tau_pi_d_100,cut8,1500.0,10.0,100.0,0.3016641511,0.768744,0.5487048715209961,0.7693669784145355,1.15611890625,1.7966781785316468,2.7232783839054107,0.7754640993944971,0.0022711563102848203
mass_X_d_1500_mass_pi_d_10_tau_pi_d_150,cut8,1500.0,10.0,150.0,0.219353283,0.768744,0.7558291571044922,1.0550637063102721,1.5795286874999999,2.454682312683105,3.720634934360504,1.063911231698035,0.004127352029159644
mass_X_d_1500_mass_pi_d_10_tau_pi_d_225,cut8,1500.0,10.0,225.0,0.1461378444,0.768744,1.1305472827148437,1.5816512862110137,2.3722959375,3.6866902170066833,5.588025836654663,1.5994705775233036,0.006687335769365041
mass_X_d_1500_mass_pi_d_10_tau_pi_d_300,cut8,1500.0,10.0,300.0,0.1041985391,0.768744,1.5856283408203125,2.2183159811668394,3.3272201249999998,5.1972242742004395,7.849609400733947,2.246363318922293,0.008448627871563454
mass_X_d_2000_mass_pi_d_1_tau_pi_d_1,cut5,2000.0,1.0,1.0,0.0009660954,0.0487065,-0.0487065,-0.0487065,-0.0487065,-0.0487065,-0.0487065,-0.0487065,-0.0487065
mass_X_d_2000_mass_pi_d_1_tau_pi_d_2,cut5,2000.0,1.0,2.0,0.0465174416,0.0487065,7.896062690277099,10.803439262443542,15.730677421875,23.6312751320343,34.88208273486328,10.351670407758093,0.048608800584478806
mass_X_d_2000_mass_pi_d_1_tau_pi_d_5,cut5,2000.0,1.0,5.0,0.3076753369,0.0487065,1.1918941929931641,1.6239521962623595,2.3561769375,3.5301547548294065,5.13450536441803,1.550215421585867,0.007280416216295727
mass_X_d_2000_mass_pi_d_1_tau_pi_d_25,cut8,2000.0,1.0,25.0,0.3510248341,0.0487065,0.47142207989501955,0.6639994287099839,1.00152740625,1.5724022046089172,2.4125274580249787,0.6729661250702261,0.0018635340823649732
mass_X_d_2000_mass_pi_d_1_tau_pi_d_45,cut8,2000.0,1.0,45.0,0.3307248149,0.0487065,0.5000799570922851,0.7043641342105865,1.06241053125,1.6595192527999878,2.5309976062259674,0.7126536979741332,0.0017467684485970181
mass_X_d_2000_mass_pi_d_1_tau_pi_d_60,cut8,2000.0,1.0,60.0,0.3038854205,0.0487065,0.5453201619873047,0.7663459443268776,1.15373521875,1.802171342891693,2.748561877824783,0.7743706036044546,0.0021437755306249664
mass_X_d_2000_mass_pi_d_1_tau_pi_d_100,cut8,2000.0,1.0,100.0,0.2121987202,0.0487065,0.7816287365112304,1.095961373093605,1.64688853125,2.5593635907554626,3.917562284156799,1.1060206739844456,0.0035129576921064595
mass_X_d_2000_mass_pi_d_1_tau_pi_d_150,cut8,2000.0,1.0,150.0,0.1490044945,0.0487065,1.1088725605773926,1.5548066135988234,2.336389921875,3.6308898687057494,5.503447663249969,1.5724138675625454,0.005295569271862586
mass_X_d_2000_mass_pi_d_2_tau_pi_d_1,cut5,2000.0,2.0,1.0,0.0059784684,0.0487065,61.25541579638672,83.81002131958007,122.03413575,182.83830294726562,268.8742921772461,80.34435462786556,0.37676311439369764
mass_X_d_2000_mass_pi_d_2_tau_pi_d_2,cut5,2000.0,2.0,2.0,0.1017502497,0.0487065,3.6126405384521485,4.922211882888794,7.1415905625,10.699926058708192,15.648792888839722,4.6930845266023,0.02210844390046433
mass_X_d_2000_mass_pi_d_2_tau_pi_d_5,cut8,2000.0,2.0,5.0,0.2218451475,0.0487065,0.7479705948486328,1.0535188600158691,1.5890495625,2.5074823167171476,3.869543989402771,1.0675088054039361,0.002865261711855845
mass_X_d_2000_mass_pi_d_2_tau_pi_d_25,cut8,2000.0,2.0,25.0,0.4229421788,0.0487065,0.3911800237426758,0.5509782533082962,0.83105465625,1.3047592030305863,2.0018844548206327,0.5588069342840135,0.001538177398058488
mass_X_d_2000_mass_pi_d_2_tau_pi_d_45,cut8,2000.0,2.0,45.0,0.3907124044,0.0487065,0.4255694763793945,0.5956772211942672,0.90411440625,1.4122556919078826,2.1747772570152284,0.6049920816022776,0.001663117933192288
mass_X_d_2000_mass_pi_d_2_tau_pi_d_60,cut8,2000.0,2.0,60.0,0.3904838938,0.0487065,0.4262116030883789,0.597612984249115,0.89802609375,1.409904664618492,2.163208571422577,0.6034057953072418,0.0013959564919739224
mass_X_d_2000_mass_pi_d_2_tau_pi_d_100,cut8,2000.0,2.0,100.0,0.3016606574,0.0487065,0.5504631212768555,0.7718323094873428,1.15982353125,1.8116815441646577,2.7630662121448517,0.7798608470520653,0.0021957852545801512
mass_X_d_2000_mass_pi_d_2_tau_pi_d_150,cut8,2000.0,2.0,150.0,0.2263329707,0.0487065,0.7310612581787109,1.0250581172046662,1.5403430625,2.4183448733196258,3.6750524303970336,1.0387510120183097,0.0030274301011106283
mass_X_d_2000_mass_pi_d_2_tau_pi_d_225,cut8,2000.0,2.0,225.0,0.1275535479,0.0487065,1.3003065856933593,1.8176031935691834,2.739740625,4.2577211046180725,6.45355476663208,1.838839536332827,0.005970591160588316
mass_X_d_2000_mass_pi_d_5_tau_pi_d_1,cut5,2000.0,5.0,1.0,0.0053785553,0.0487065,68.16208311328126,93.25976011999512,135.793722,203.45366202685545,299.1903783618164,89.39472260340209,0.42073879240480705
mass_X_d_2000_mass_pi_d_5_tau_pi_d_2,cut5,2000.0,5.0,2.0,0.0915331601,0.0487065,4.015713283950806,5.471397067966461,7.9383984609375,11.862105540962219,17.377345965270997,5.214649024529831,0.024543387949508916
mass_X_d_2000_mass_pi_d_5_tau_pi_d_5,cut8,2000.0,5.0,5.0,0.2299760885,0.0487065,0.7222974177246094,1.015054522564888,1.5281664375,2.411410239303589,3.721285553443909,1.029235147155787,0.00277937950849346
mass_X_d_2000_mass_pi_d_5_tau_pi_d_25,cut8,2000.0,5.0,25.0,0.4392143692,0.0487065,0.376851085144043,0.5307958541078568,0.80061309375,1.2569658198451996,1.928555294019699,0.5384009108886998,0.0014717725591566768
mass_X_d_2000_mass_pi_d_5_tau_pi_d_45,cut8,2000.0,5.0,45.0,0.4538541349,0.0487065,0.3646714873352051,0.5136408891077041,0.774737765625,1.2163414580726624,1.866225711719513,0.5207431979782344,0.0014336163594121933
mass_X_d_2000_mass_pi_d_5_tau_pi_d_60,cut8,2000.0,5.0,60.0,0.4214184507,0.0487065,0.39404581146240236,0.5515530273170471,0.83714296875,1.3076441282072067,2.013682604095459,0.5606387342690854,0.0015503290644014712
mass_X_d_2000_mass_pi_d_5_tau_pi_d_100,cut8,2000.0,5.0,100.0,0.3625986408,0.0487065,0.45566024743652345,0.6417988174595832,0.9680416875,1.5198294738149642,2.320741613554001,0.6501275298022208,0.0015683046966003722
mass_X_d_2000_mass_pi_d_5_tau_pi_d_150,cut8,2000.0,5.0,150.0,0.2861457739,0.0487065,0.5808036082763672,0.8143742258605957,1.2237508125,1.9115380072288513,2.915361165103912,0.8225195610119768,0.0022471511539654664
mass_X_d_2000_mass_pi_d_5_tau_pi_d_225,cut8,2000.0,5.0,225.0,0.1850446821,0.0487065,0.897211544128418,1.2580259048967362,1.89042103125,2.9528982648983,4.503580570735932,1.2708623984220968,0.003649176392581956
mass_X_d_2000_mass_pi_d_5_tau_pi_d_300,cut8,2000.0,5.0,300.0,0.1297310367,0.0487065,1.277190024169922,1.7908129835243225,2.691034125,4.203481464168549,6.348713460548401,1.8090107093591636,0.0057418063377071265
mass_X_d_2000_mass_pi_d_10_tau_pi_d_1,cut5,2000.0,10.0,1.0,0.0096056173,0.0487065,38.300765333496095,52.18467444909668,75.71425425,113.4392816414795,165.90655129870606,49.72312011048498,0.234371276491511
mass_X_d_2000_mass_pi_d_10_tau_pi_d_2,cut5,2000.0,10.0,2.0,0.1206129746,0.0487065,3.0490316564941407,4.154296341945648,6.027429375,9.03062849443817,13.207421195663452,3.958623539847732,0.01864119786612693
mass_X_d_2000_mass_pi_d_10_tau_pi_d_5,cut8,2000.0,10.0,5.0,0.2537532049,0.0487065,0.6562653878173829,0.9185864112739563,1.3942235625,2.188936745510101,3.358472814834595,0.9326784023905199,0.0025242701512689187
mass_X_d_2000_mass_pi_d_10_tau_pi_d_25,cut8,2000.0,10.0,25.0,0.4696409139,0.0487065,0.35392478338623046,0.4953949032640457,0.75190659375,1.1804964439086914,1.8112287482185363,0.5036262060274064,0.0013737274670298835
mass_X_d_2000_mass_pi_d_10_tau_pi_d_45,cut8,2000.0,10.0,45.0,0.4539831918,0.0487065,0.3646714873352051,0.5136408891077041,0.774737765625,1.2163414580726624,1.866225711719513,0.5208109404802768,0.0014263727242583085
mass_X_d_2000_mass_pi_d_10_tau_pi_d_60,cut8,2000.0,10.0,60.0,0.432884536,0.0487065,0.3825826605834961,0.5388687952079773,0.81278971875,1.2760832102794648,1.957887069820404,0.5463189407296688,0.0014919513669531834
mass_X_d_2000_mass_pi_d_10_tau_pi_d_100,cut8,2000.0,10.0,100.0,0.392326378,0.0487065,0.42270368865966795,0.5953793829088211,0.89802609375,1.409904664618492,2.163208571422577,0.6022708786749822,0.0016632738346619423
mass_X_d_2000_mass_pi_d_10_tau_pi_d_150,cut8,2000.0,10.0,150.0,0.3035237126,0.0487065,0.5459325606079102,0.7689476630115509,1.15982353125,1.8116815441646577,2.7898658980178834,0.7765752737990699,0.001736165877784511
mass_X_d_2000_mass_pi_d_10_tau_pi_d_225,cut8,2000.0,10.0,225.0,0.2072003291,0.0487065,0.7999947495117188,1.1242436544742584,1.692550875,2.6438186744327545,4.032191191738129,1.1369386258650345,0.0028933277896127725
mass_X_d_2000_mass_pi_d_10_tau_pi_d_300,cut8,2000.0,10.0,300.0,0.1694927145,0.0487065,0.9795642945556641,1.373496953481674,2.0639379375,3.2403909897880556,4.924279471435547,1.3888633273593414,0.003730439071884965
mass_X_d_400_mass_pi_d_1_tau_pi_d_150,cut4,400.0,1.0,150.0,0.004503922,5506.11,120.79482501983642,158.67612467944622,217.7709521484375,306.31147504728284,427.26126715555785,222.30466082048954,1.6414574626087688
mass_X_d_400_mass_pi_d_1_tau_pi_d_225,cut4,400.0,1.0,225.0,0.0031032843,5506.11,177.46400218963623,233.11677576363084,319.9351025390625,460.2153723415732,646.4553320235013,328.0243465511163,1.752593640305438
mass_X_d_400_mass_pi_d_1_tau_pi_d_300,cut4,400.0,1.0,300.0,0.0024470903,5506.11,223.48407897949218,294.3704352807998,408.6566015625,582.9513165470212,822.6129749903082,416.1648388889074,2.1485326878203908
mass_X_d_400_mass_pi_d_1_tau_pi_d_500,cut4,400.0,1.0,500.0,0.0006670186,5506.11,833.8959738349914,1111.9895112347601,1575.478740234375,2341.62962577492,3460.977314865589,1612.9488016671673,4.018499404078528
mass_X_d_400_mass_pi_d_1_tau_pi_d_1000,cut4,400.0,1.0,1000.0,0.0001599859,5506.11,3674.2546932220457,5066.335760936737,7678.442460937499,12514.285323007107,21063.5700448966,7851.3326427337815,25.02216122693903
mass_X_d_400_mass_pi_d_2_tau_pi_d_225,cut4,400.0,2.0,225.0,0.0036112467,5506.11,149.27644260406493,199.13666743218897,276.9186181640625,389.507182040289,543.307514962703,279.1778162327688,2.2476234608298338
mass_X_d_400_mass_pi_d_2_tau_pi_d_300,cut4,400.0,2.0,300.0,0.0029422689,5506.11,186.4117670059204,244.87056277692315,336.0662841796875,472.7029095451534,663.6445973557234,342.9263303491434,1.9537178763238703
mass_X_d_400_mass_pi_d_2_tau_pi_d_500,cut4,400.0,2.0,500.0,0.0020515489,5506.11,268.0233637046814,351.70641193583606,486.62397949218746,698.0516805267333,982.0289213700592,496.56894824104415,2.155842826654415
mass_X_d_400_mass_pi_d_2_tau_pi_d_1000,cut4,400.0,2.0,1000.0,0.0003024973,5506.11,1832.8635056304931,2444.0998130893704,3462.8269921875,5105.3811495709415,7542.19974529624,3528.9991423553565,16.666952012545416
mass_X_d_400_mass_pi_d_5_tau_pi_d_300,cut4,400.0,5.0,300.0,0.0034946264,5506.11,156.58588428497313,205.69127273261546,282.29567871093747,397.0704374541342,546.6486094918101,285.82578052675484,2.2605785496635855
mass_X_d_400_mass_pi_d_5_tau_pi_d_500,cut4,400.0,5.0,500.0,0.001747028,5506.11,317.97121519088745,419.3861904738843,594.1651904296874,866.5274685157835,1266.8649526910483,604.1643270861091,2.105498703589241
mass_X_d_400_mass_pi_d_5_tau_pi_d_1000,cut4,400.0,5.0,1000.0,0.0009670236,5506.11,570.3937518596649,756.6548797792195,1061.9694580078124,1548.770824049413,2238.047859842777,1084.6589987528662,4.7452910786217
mass_X_d_400_mass_pi_d_10_tau_pi_d_300,cut4,400.0,10.0,300.0,0.0034912434,5506.11,156.58588428497313,205.69127273261546,282.29567871093747,401.57139551505446,560.397625972554,288.9911533319985,1.0009129913350823
mass_X_d_400_mass_pi_d_10_tau_pi_d_500,cut4,400.0,10.0,500.0,0.002352904,5506.11,235.02585542678833,307.66564741149546,432.8533740234375,624.3696810286492,891.9304202842712,441.2043079197769,2.0025347344723397
mass_X_d_400_mass_pi_d_10_tau_pi_d_1000,cut4,400.0,10.0,1000.0,0.0010483665,5506.11,521.9529476165771,687.5098981887102,954.4282470703124,1369.1069660952687,1926.078906635642,973.3376626920159,4.326265059627707
mass_X_d_600_mass_pi_d_1_tau_pi_d_150,cut4,600.0,1.0,150.0,0.0302897733,523.797,18.300845043182374,24.039996492683887,32.993072753906254,47.32785818228871,66.58149368673563,33.777111133672065,0.18598302420427038
mass_X_d_600_mass_pi_d_1_tau_pi_d_225,cut4,600.0,1.0,225.0,0.0333063414,523.797,16.40662066268921,21.88664001899958,30.43547021484375,43.2950798586756,61.573204012602574,30.815774395908505,0.2103309468653672
mass_X_d_600_mass_pi_d_1_tau_pi_d_300,cut4,600.0,1.0,300.0,0.0132432901,523.797,40.85919915676117,53.37188400305808,72.89167236328126,101.07495687058568,137.34255388113857,74.32612520583764,0.19146887486190928
mass_X_d_600_mass_pi_d_1_tau_pi_d_500,cut4,600.0,1.0,500.0,0.005840723,523.797,93.10772212028503,121.49689956392348,167.2672060546875,235.94083235549928,324.35345559597016,170.74817442252234,0.6017891440318457
mass_X_d_600_mass_pi_d_1_tau_pi_d_1000,cut4,600.0,1.0,1000.0,0.0013054023,523.797,420.9054491043091,558.3514216672182,783.6494179687501,1136.6230454149247,1638.0803613231183,798.0979014785855,2.7309029552269104
mass_X_d_600_mass_pi_d_2_tau_pi_d_225,cut4,600.0,2.0,225.0,0.0269757659,523.797,20.284985137939454,26.747677100658418,36.829476562500005,52.24388278191537,73.016055768013,37.62927382004537,0.19951863567267625
mass_X_d_600_mass_pi_d_2_tau_pi_d_300,cut4,600.0,2.0,300.0,0.0204123564,523.797,26.714957771301272,35.188608439385895,48.85020849609375,68.9062676011026,96.59364196765424,49.64035096800319,0.21496090816346666
mass_X_d_600_mass_pi_d_2_tau_pi_d_500,cut4,600.0,2.0,500.0,0.0081440967,523.797,66.91227736473084,87.31428561933339,120.20731933593751,169.5599318854809,234.629077601105,122.78296196928423,0.4124070950708781
mass_X_d_600_mass_pi_d_2_tau_pi_d_1000,cut4,600.0,2.0,1000.0,0.0026712204,523.797,203.97679499816894,267.6630339063406,370.34084765625,525.3412399510146,729.5231551723481,377.8688338631877,1.1434567836757554
mass_X_d_600_mass_pi_d_5_tau_pi_d_300,cut4,600.0,5.0,300.0,0.0261753184,523.797,20.969343629837038,27.726158323511484,38.619798339843754,55.39927652234584,78.90582384409011,39.34512560873974,0.11187937502286942
mass_X_d_600_mass_pi_d_5_tau_pi_d_500,cut4,600.0,5.0,500.0,0.0123063166,523.797,43.99126320362091,57.40449841781706,79.02991845703126,110.21656733997166,150.3651903933585,80.39538220820133,0.19498083429745514
mass_X_d_600_mass_pi_d_5_tau_pi_d_1000,cut4,600.0,5.0,1000.0,0.0045887043,523.797,118.4709469871521,155.7533271291554,215.861654296875,306.20721562814714,427.9552469721437,220.22328441049092,0.7383018169809306
mass_X_d_600_mass_pi_d_10_tau_pi_d_500,cut4,600.0,10.0,500.0,0.0138133955,523.797,39.15879309368134,51.28889516148716,70.84559033203125,98.80255573770404,136.61571958047153,72.10520706206606,0.22432383842633732
mass_X_d_600_mass_pi_d_10_tau_pi_d_1000,cut4,600.0,10.0,1000.0,0.0071063851,523.797,76.64115764808655,100.75985380630196,139.6450986328125,196.97812108245492,274.3477052886486,142.04597550058753,0.4277655911437104
mass_X_d_800_mass_pi_d_1_tau_pi_d_150,cut4,800.0,1.0,150.0,0.1097425564,85.0014,4.938235554885864,6.432062601837516,8.84047763671875,12.329091167405249,16.82021381637454,9.013817772531471,0.030186509845466333
mass_X_d_800_mass_pi_d_1_tau_pi_d_225,cut4,800.0,1.0,225.0,0.0743391182,85.0014,7.27984020767212,9.52694997457266,13.0324412109375,18.175280156949164,24.795995609754325,13.270928886132547,0.037341045577966726
mass_X_d_800_mass_pi_d_1_tau_pi_d_300,cut4,800.0,1.0,300.0,0.049372078,85.0014,11.004552891540527,14.386563919937611,19.839193945312502,27.82626131899953,38.36396357197166,20.23658023168002,0.06798922639806866
mass_X_d_800_mass_pi_d_1_tau_pi_d_500,cut4,800.0,1.0,500.0,0.0165199193,85.0014,33.232854789733885,43.91571671111584,61.42679296875,88.60512518320084,126.57501554346085,62.57613419233635,0.2148544877274483
mass_X_d_800_mass_pi_d_1_tau_pi_d_1000,cut4,800.0,1.0,1000.0,0.0034513321,85.0014,158.1765859313965,207.95418758168222,288.207871875,411.1304429803848,580.1534266181947,294.4989923450836,0.8581897025446387
mass_X_d_800_mass_pi_d_2_tau_pi_d_225,cut4,800.0,2.0,225.0,0.071108564,85.0014,7.653705770874024,10.062299399113655,13.945542187500001,19.782232796940207,27.647650227928164,14.233994582663195,0.06095880481571429
mass_X_d_800_mass_pi_d_2_tau_pi_d_300,cut4,800.0,2.0,300.0,0.0562648719,85.0014,9.657112867355346,12.601632232037188,17.3489185546875,24.33342614530921,33.32635664588213,17.695583788270117,0.058837084325951826
mass_X_d_800_mass_pi_d_2_tau_pi_d_500,cut4,800.0,2.0,500.0,0.0332881979,85.0014,16.379883658218386,21.45382989957333,29.6342771484375,42.03724390186071,58.563457584965235,30.31043529697944,0.1039676448562624
mass_X_d_800_mass_pi_d_2_tau_pi_d_1000,cut4,800.0,2.0,1000.0,0.0076005489,85.0014,71.15767375946045,93.73969690332413,127.83413671875,178.27982445731163,244.86597435779572,130.46891159866902,0.37923992184017874
mass_X_d_800_mass_pi_d_5_tau_pi_d_300,cut4,800.0,5.0,300.0,0.0662075304,85.0014,8.201614995002746,10.70234253026247,14.734129394531251,20.548485701215267,28.223186957967282,14.988011444367098,0.06773659125297728
mass_X_d_800_mass_pi_d_5_tau_pi_d_500,cut4,800.0,5.0,500.0,0.0414435935,85.0014,13.076377710342408,17.127008073851467,23.6576162109375,33.18194428301454,45.747821111404896,24.124564660339296,0.07360154233562925
mass_X_d_800_mass_pi_d_5_tau_pi_d_1000,cut4,800.0,5.0,1000.0,0.0151562471,85.0014,35.70367490386963,46.94494885879755,63.917068359375,89.13991222865582,121.61093081653118,65.07550341624642,0.2289023674527553
mass_X_d_800_mass_pi_d_10_tau_pi_d_500,cut4,800.0,10.0,500.0,0.047571082,85.0014,11.42462473640442,14.963596527680755,20.6692857421875,28.990540554642678,40.23369670624137,21.013271645565492,0.07301999040368093
mass_X_d_800_mass_pi_d_10_tau_pi_d_1000,cut4,800.0,10.0,1000.0,0.0214241343,85.0014,25.21955065841675,33.097227700155976,44.990975390625,62.74523247141838,85.60146355125904,46.03270838906659,0.1644607329209697
mass_X_d_1000_mass_pi_d_1_tau_pi_d_150,cut4,1000.0,1.0,150.0,0.1765324802,18.45402,3.0608750023269655,4.0169818362692,5.46051568359375,7.571802952825427,10.288708008570671,5.562081639106118,0.02052904312246128
mass_X_d_1000_mass_pi_d_1_tau_pi_d_225,cut4,1000.0,1.0,225.0,0.1471627962,18.45402,3.67434529838562,4.78584278074801,6.57784892578125,9.121149063785076,12.393989026454687,6.683724644916997,0.02453435866347919
mass_X_d_1000_mass_pi_d_1_tau_pi_d_300,cut4,1000.0,1.0,300.0,0.096966605,18.45402,5.596451324386597,7.276026559887528,9.9839131640625,13.883950740219355,18.83952443133831,10.159400345337335,0.03614656127488018
mass_X_d_1000_mass_pi_d_1_tau_pi_d_500,cut4,1000.0,1.0,500.0,0.044016447,18.45402,12.32431519088745,16.173986271446942,21.986234765625,30.66240315544367,42.11457831225872,22.455488368606048,0.05105330385545459
mass_X_d_1000_mass_pi_d_1_tau_pi_d_1000,cut4,1000.0,1.0,1000.0,0.0080816242,18.45402,66.9149703479004,87.81679103447914,119.374441875,166.48177312969207,225.59084521482467,122.07790740812891,0.5128387037505172
mass_X_d_1000_mass_pi_d_2_tau_pi_d_225,cut4,1000.0,2.0,225.0,0.1693126273,18.45402,3.2023015700912474,4.163358157913983,5.71281673828125,7.921655406907797,10.6902650417161,5.799422222651748,0.021066016891721114
mass_X_d_1000_mass_pi_d_2_tau_pi_d_300,cut4,1000.0,2.0,300.0,0.1238827999,18.45402,4.3689475602722165,5.717535503647327,7.8213326953125,10.907773726404905,14.881151255836487,7.962215934861479,0.026562435428015275
mass_X_d_1000_mass_pi_d_2_tau_pi_d_500,cut4,1000.0,2.0,500.0,0.0591182039,18.45402,9.188855097198486,11.990599484428166,16.507697578125,23.021936666815282,31.620453317756652,16.76928617059684,0.04001005114234943
mass_X_d_1000_mass_pi_d_2_tau_pi_d_1000,cut4,1000.0,2.0,1000.0,0.0178852683,18.45402,30.305693092346193,39.40086804765701,54.06451171875,74.96834750513077,101.8683987381935,55.07703450739665,0.1576100602740445
mass_X_d_1000_mass_pi_d_5_tau_pi_d_300,cut4,1000.0,5.0,300.0,0.1456410546,18.45402,3.707396454963684,4.865452972244024,6.61389193359375,9.223854256914853,12.498767616487742,6.747361256329688,0.02442871427987067
mass_X_d_1000_mass_pi_d_5_tau_pi_d_500,cut4,1000.0,5.0,500.0,0.0915296616,18.45402,5.919712050704956,7.76881635661304,10.5606012890625,14.728006970719099,20.092982504911422,10.800413191976048,0.04197620277459322
mass_X_d_1000_mass_pi_d_5_tau_pi_d_1000,cut4,1000.0,5.0,1000.0,0.0328278259,18.45402,16.486297042236327,21.535046000347137,29.411094375,40.782782133936884,55.41641049749851,29.98813605493369,0.0869794196333086
mass_X_d_1000_mass_pi_d_10_tau_pi_d_500,cut4,1000.0,10.0,500.0,0.0929705867,18.45402,5.818552280731201,7.6145979749035835,10.4164292578125,14.526942468366622,19.684709205722807,10.618557192838397,0.029859942257319475
mass_X_d_1000_mass_pi_d_10_tau_pi_d_1000,cut4,1000.0,10.0,1000.0,0.0492089553,18.45402,10.954399308013915,14.362634838330745,19.679482265625,27.28847931902647,36.82577069072485,19.998030917091704,0.05420247490761951
mass_X_d_1250_mass_pi_d_1_tau_pi_d_150,cut4,1250.0,1.0,150.0,0.2784712103,3.4749,1.940235569000244,2.5462951060831545,3.4613261718749997,4.827228665864467,6.541127858662605,3.535049762088331,0.00874799019789238
mass_X_d_1250_mass_pi_d_1_tau_pi_d_225,cut4,1250.0,1.0,225.0,0.2190208615,3.4749,2.472849254608154,3.214986750036478,4.411494140625,6.117181432521343,8.255129368829726,4.489179677365906,0.013087516891113446
mass_X_d_1250_mass_pi_d_1_tau_pi_d_300,cut4,1250.0,1.0,300.0,0.1570259039,3.4749,3.45438018951416,4.51224650952816,6.16251796875,8.594359913134575,11.725030316162108,6.289036745718026,0.0144559379915943
mass_X_d_1250_mass_pi_d_1_tau_pi_d_500,cut4,1250.0,1.0,500.0,0.0784237449,3.4749,6.90876037902832,9.02449301905632,12.3250359375,17.18871982626915,23.29154575910568,12.581254864625501,0.06189610310440267
mass_X_d_1250_mass_pi_d_1_tau_pi_d_1000,cut4,1250.0,1.0,1000.0,0.0168940679,3.4749,32.03635528564453,41.804457803249356,57.55303125,79.80569201087951,109.18525543842316,58.48916501701641,0.17207683075682412
mass_X_d_1250_mass_pi_d_2_tau_pi_d_225,cut4,1250.0,2.0,225.0,0.2586488951,3.4749,2.092410907745361,2.746004526168108,3.732802734375,5.20583482761383,7.102165889310837,3.817240365675563,0.011111295242612654
mass_X_d_1250_mass_pi_d_2_tau_pi_d_300,cut4,1250.0,2.0,300.0,0.1829926104,3.4749,2.954295970916748,3.855080689358711,5.307366796875,7.359439806818962,10.068734973621368,5.399778415979867,0.015699836389230035
mass_X_d_1250_mass_pi_d_2_tau_pi_d_500,cut4,1250.0,2.0,500.0,0.1022100298,3.4749,5.292414376831054,6.926054085588455,9.47453203125,13.137823576211929,17.851921956968308,9.648695469284577,0.0200248253427556
mass_X_d_1250_mass_pi_d_2_tau_pi_d_1000,cut4,1250.0,2.0,1000.0,0.0315272958,3.4749,17.106204803466795,22.428447800159454,30.731146875,42.61322731046676,57.903650918769834,31.185613556503604,0.07775157789152956
mass_X_d_1250_mass_pi_d_5_tau_pi_d_300,cut4,1250.0,5.0,300.0,0.2410466628,3.4749,2.244586246490478,2.9457139462530613,4.004279296875,5.584440989363193,7.5671871468544,4.083855524370617,0.009146874201653171
mass_X_d_1250_mass_pi_d_5_tau_pi_d_500,cut4,1250.0,5.0,500.0,0.1434377972,3.4749,3.789165934753418,4.972764560115337,6.75976640625,9.481183074474334,12.985154462957382,6.91111188661843,0.0165073065846515
mass_X_d_1250_mass_pi_d_5_tau_pi_d_1000,cut4,1250.0,5.0,1000.0,0.0589264193,3.4749,9.160955392456055,12.022507089114189,16.3428890625,22.661804307746888,30.793286242961884,16.678253219176085,0.02881607466035256
mass_X_d_1250_mass_pi_d_10_tau_pi_d_500,cut4,1250.0,10.0,500.0,0.1566816306,3.4749,3.4605308303833007,4.515670206105709,6.216813281249999,8.670081394028664,11.908290251541137,6.330938970509404,0.014772648882061262
mass_X_d_1250_mass_pi_d_10_tau_pi_d_1000,cut4,1250.0,10.0,1000.0,0.0780011331,3.4749,6.93283271484375,9.081288686370849,12.3250359375,17.18871982626915,23.29154575910568,12.611021908776348,0.060961100931075006
mass_X_d_1500_mass_pi_d_1_tau_pi_d_150,cut4,1500.0,1.0,150.0,0.3500838559,0.768744,1.5418750583496093,2.023501155218124,2.750662125,3.836123658908844,5.233509513576507,2.815938387580079,0.008439173739553597
mass_X_d_1500_mass_pi_d_1_tau_pi_d_225,cut4,1500.0,1.0,225.0,0.2699093287,0.768744,1.9991613757324218,2.6211592270088193,3.591475875,4.980106307819367,6.7670616976089475,3.6504678326538427,0.0067783383777062535
mass_X_d_1500_mass_pi_d_1_tau_pi_d_300,cut4,1500.0,1.0,300.0,0.205316342,0.768744,2.6276602697753906,3.4615532592773435,4.720568625,6.54575865058136,8.894499809051513,4.793628383583925,0.021012882299495213
mass_X_d_1500_mass_pi_d_1_tau_pi_d_500,cut4,1500.0,1.0,500.0,0.0937654729,0.768744,5.78322207421875,7.560570143463135,10.426090499999999,14.540416634262085,19.971150593444825,10.592150707436543,0.030996145221081784
mass_X_d_1500_mass_pi_d_1_tau_pi_d_1000,cut4,1500.0,1.0,1000.0,0.0233702126,0.768744,23.26389008203125,30.47027564437866,42.088734,59.36878792913818,82.15174380706787,42.9429706808264,0.12986123720820156
mass_X_d_1500_mass_pi_d_2_tau_pi_d_225,cut4,1500.0,2.0,225.0,0.3211018947,0.768744,1.6841142817382813,2.193562532283783,3.014917875,4.180624307247162,5.680710875301361,3.0627871396524493,0.007915482536011539
mass_X_d_1500_mass_pi_d_2_tau_pi_d_300,cut4,1500.0,2.0,300.0,0.257628976,0.768744,2.0927675939941404,2.7569115204105374,3.759638625,5.213288283061981,7.083914494262695,3.823463356421354,0.011017407119434275
mass_X_d_1500_mass_pi_d_2_tau_pi_d_500,cut4,1500.0,2.0,500.0,0.1588039214,0.768744,3.4069379018554686,4.471142290569305,6.07788225,8.476325319190979,11.563999155189514,6.214014028322081,0.02733591762301548
mass_X_d_1500_mass_pi_d_2_tau_pi_d_1000,cut4,1500.0,2.0,1000.0,0.0478741983,0.768744,11.286235458984375,14.867944557357788,20.275623,28.438393147613525,38.948400801177975,20.721301937342744,0.06036636480144631
mass_X_d_1500_mass_pi_d_5_tau_pi_d_300,cut4,1500.0,5.0,300.0,0.3051175158,0.768744,1.770799739501953,2.323933641145706,3.1590573749999997,4.380494624107361,5.952298305953979,3.2257575163275956,0.009836309061606808
mass_X_d_1500_mass_pi_d_5_tau_pi_d_500,cut4,1500.0,5.0,500.0,0.1883748769,0.768744,2.8682915932617186,3.7642423236808775,5.11695225,7.0954019303054805,9.641365701553344,5.227620273796005,0.021062128613844804
mass_X_d_1500_mass_pi_d_5_tau_pi_d_1000,cut4,1500.0,5.0,1000.0,0.0902832198,0.768744,6.005906340820312,7.845149762374878,10.7143695,14.94245563494873,20.385548723419188,10.939230071915286,0.03209578077651638
mass_X_d_1500_mass_pi_d_10_tau_pi_d_500,cut4,1500.0,10.0,500.0,0.2321302662,0.768744,2.3363783635253905,3.0375589890117642,4.168033875,5.779588308391571,7.853412886482238,4.243193306897122,0.018315416829382147
mass_X_d_1500_mass_pi_d_10_tau_pi_d_1000,cut4,1500.0,10.0,1000.0,0.1082463086,0.768744,4.995944512207031,6.556496826324463,8.91262575,12.429710780960082,16.84285834487915,9.102187457482618,0.02701563440697729
mass_X_d_2000_mass_pi_d_1_tau_pi_d_225,cut4,2000.0,1.0,225.0,0.3218734579,0.0487065,1.6784032777404785,2.2110479402446748,3.015236765625,4.205104246192932,5.736898996879578,3.074431756018553,0.00902658570151196
mass_X_d_2000_mass_pi_d_1_tau_pi_d_300,cut4,2000.0,1.0,300.0,0.2659027257,0.0487065,2.0325539945983886,2.6775890396289825,3.651465421875,5.092400358043671,6.947410405220031,3.7242390122900533,0.010929000913763875
mass_X_d_2000_mass_pi_d_1_tau_pi_d_500,cut4,2000.0,1.0,500.0,0.1253757889,0.0487065,4.317588643798828,5.687783735664367,7.756510125,10.879205754890442,14.899845726287841,7.921177494741099,0.02309752913365204
mass_X_d_2000_mass_pi_d_1_tau_pi_d_1000,cut4,2000.0,1.0,1000.0,0.0400934918,0.0487065,13.50799149243164,17.77771642753601,24.438486375,34.27718451095581,47.257826470825194,24.931306629389073,0.07385711744319015
mass_X_d_2000_mass_pi_d_2_tau_pi_d_300,cut4,2000.0,2.0,300.0,0.312927746,0.0487065,1.7283910583496094,2.2768993720149995,3.105039375,4.355098059310913,6.0043577772102354,3.178522963059372,0.0092494661355428
mass_X_d_2000_mass_pi_d_2_tau_pi_d_500,cut4,2000.0,2.0,500.0,0.1915601147,0.0487065,2.8264277307128904,3.7233999637298583,5.077652625,7.1218667190628056,9.753902479866028,5.189233716841295,0.015126189633611948
mass_X_d_2000_mass_pi_d_2_tau_pi_d_1000,cut4,2000.0,2.0,1000.0,0.0721804454,0.0487065,7.48969458618164,9.866563759597778,13.455170625,18.764825710922242,25.77334591781616,13.72903735710363,0.03999895382168884
mass_X_d_2000_mass_pi_d_5_tau_pi_d_500,cut4,2000.0,5.0,500.0,0.2462338301,0.0487065,2.1960733447265626,2.8930015550308226,3.9452265,5.502085001998902,7.506331167640686,4.024036528036841,0.011807203157267937
mass_X_d_2000_mass_pi_d_5_tau_pi_d_1000,cut4,2000.0,5.0,1000.0,0.1191454278,0.0487065,4.539003446044922,5.956824421897888,8.097455625,11.29285947024536,15.302369988555908,8.268546104094593,0.024548895260229995
mass_X_d_2000_mass_pi_d_10_tau_pi_d_500,cut4,2000.0,10.0,500.0,0.3181786699,0.0487065,1.7080570458984374,2.228855250984192,3.0685095,4.303861698989868,5.89444448764801,3.129485205410665,0.009141221310522588
mass_X_d_2000_mass_pi_d_10_tau_pi_d_1000,cut4,2000.0,10.0,1000.0,0.1582176608,0.0487065,3.414419590759277,4.497992433322906,6.13397484375,8.554553225509643,11.670722796798707,6.255188903188924,0.01836219339508286
