name,cutname,mass_X_d,mass_pi_d,tau_pi_d,acceptance,xsec_fb,sigma-2,sigma-1,sigma0,sigma1,sigma2,observed,observed_err
mass_X_d_400_mass_pi_d_1_tau_pi_d_1,cut1,400.0,1.0,1.0,0.0007259137,5506.11,1645.023456916809,2210.761181067824,3107.9409960937496,4507.828712931275,6342.132643289566,1786.2186882808674,8.109820607734674
mass_X_d_400_mass_pi_d_1_tau_pi_d_2,cut5,400.0,1.0,2.0,0.0024195896,5506.11,148.81435146331785,205.15632347166536,293.0497998046875,440.2315304291993,639.2572287087143,199.5389720420509,1.5757562230533064
mass_X_d_400_mass_pi_d_1_tau_pi_d_5,cut1,400.0,1.0,5.0,0.0314220088,5506.11,35.7070426940918,49.49101138114929,67.2132568359375,99.36305103957652,130.54164978280662,40.61479930486335,1.8519396754220854
mass_X_d_400_mass_pi_d_1_tau_pi_d_25,cut2,400.0,1.0,25.0,0.0307172576,5506.11,19.65987762451172,25.394008598327634,34.9508935546875,50.55425893303938,69.71017558632418,62.01201499927734,1.20031627728491
mass_X_d_400_mass_pi_d_1_tau_pi_d_45,cut6,400.0,1.0,45.0,0.012034395,5506.11,23.944722747802732,35.81731444358825,51.0820751953125,78.77376060973853,114.66096921002492,49.90525732893276,1.7991304389668954
mass_X_d_400_mass_pi_d_1_tau_pi_d_60,cut2,400.0,1.0,60.0,0.0163897468,5506.11,35.7070426940918,45.55273461341858,67.2132568359375,99.36305103957652,140.3875263088569,119.92588180875063,2.4411841525487357
mass_X_d_400_mass_pi_d_1_tau_pi_d_100,cut6,400.0,1.0,100.0,0.0049900622,5506.11,58.601558303833,80.04547530412674,120.98386230468749,176.92449929617345,258.9818186728656,117.15745786810592,2.6514873261696708
mass_X_d_400_mass_pi_d_1_tau_pi_d_150,cut4,400.0,1.0,150.0,0.0051759663,5506.11,119.4715640258789,155.7693482351303,212.3938916015625,295.3617938977852,402.1538502395153,235.65742349621107,1.9772993072796685
mass_X_d_400_mass_pi_d_1_tau_pi_d_225,cut4,400.0,1.0,225.0,0.0035407976,5506.11,174.4814139175415,229.19884675920008,314.5580419921875,437.4345334497839,597.622628218308,345.2261047704238,2.2195324506200347
mass_X_d_400_mass_pi_d_1_tau_pi_d_300,cut4,400.0,1.0,300.0,0.0026000693,5506.11,238.78559698104857,313.9670543347299,427.4763134765625,599.5741264041512,826.6306736728549,472.97810046930033,2.160251398087976
mass_X_d_400_mass_pi_d_1_tau_pi_d_500,cut4,400.0,1.0,500.0,0.0005955057,5506.11,1046.037815723419,1380.4523209887743,1919.6106152343748,2723.0338443893193,3830.042420082092,2122.6202699207997,7.950795942728675
mass_X_d_400_mass_pi_d_1_tau_pi_d_1000,cut4,400.0,1.0,1000.0,0.0001942767,5506.11,3306.2621120452877,4449.856294341087,6387.9479296875,9698.090557107926,14751.428691952227,7148.8434889865775,25.360898319191413
mass_X_d_400_mass_pi_d_2_tau_pi_d_1,cut1,400.0,2.0,1.0,0.0011445977,5506.11,1039.7890832519531,1394.588437256813,1957.2500390624998,2807.6332803958653,3900.6918233978745,1123.8513041191013,3.509992054562043
mass_X_d_400_mass_pi_d_2_tau_pi_d_2,cut5,400.0,2.0,2.0,0.0035848651,5506.11,99.66465740203857,137.39827168285845,196.26270996093749,294.83396225161846,429.30597122490406,135.34678240941673,2.6647439753845754
mass_X_d_400_mass_pi_d_2_tau_pi_d_5,cut8,400.0,2.0,5.0,0.005201169,5506.11,31.5062141418457,42.66466498374939,67.2132568359375,103.649690950457,158.73969092790037,45.3276864702972,1.2887926160657648
mass_X_d_400_mass_pi_d_2_tau_pi_d_25,cut6,400.0,2.0,25.0,0.0236973568,5506.11,13.610684509277343,16.25720649719238,24.1967724609375,38.08548238773364,58.05050210625864,24.84751816874575,0.9456209879900619
mass_X_d_400_mass_pi_d_2_tau_pi_d_45,cut6,400.0,2.0,45.0,0.0144744421,5506.11,22.684474182128906,29.3007791519165,40.3279541015625,63.475801415573805,94.90222442915663,41.00073595089439,2.3696109371250498
mass_X_d_400_mass_pi_d_2_tau_pi_d_60,cut6,400.0,2.0,60.0,0.0143525929,5506.11,22.684474182128906,29.3007791519165,40.3279541015625,63.475801415573805,94.90222442915663,41.20641073997513,2.5115721998512814
mass_X_d_400_mass_pi_d_2_tau_pi_d_100,cut6,400.0,2.0,100.0,0.0075616312,5506.11,41.420169525146484,52.84117215156555,77.9673779296875,115.26113592401146,166.65659128837285,77.96842447450129,1.2993366338369532
mass_X_d_400_mass_pi_d_2_tau_pi_d_150,cut7,400.0,2.0,150.0,0.0037596838,5506.11,70.69994453430175,93.53013495683669,137.1150439453125,209.259166877456,308.23532324831933,162.47692808545847,2.5793191959318844
mass_X_d_400_mass_pi_d_2_tau_pi_d_225,cut4,400.0,2.0,225.0,0.0043766078,5506.11,140.18164878845215,184.14266320824623,252.72184570312498,351.4431217244267,480.14124774277207,278.8037374528298,0.9872018176262616
mass_X_d_400_mass_pi_d_2_tau_pi_d_300,cut4,400.0,2.0,300.0,0.0034130088,5506.11,180.44659046173095,237.03470476806163,325.31216308593747,452.3895651432126,622.2482215860485,359.4718636247385,1.9745865893921963
mass_X_d_400_mass_pi_d_2_tau_pi_d_500,cut4,400.0,2.0,500.0,0.0018717265,5506.11,330.2166304206848,435.4219509503245,599.5422509765625,840.912177991569,1159.3624681417643,662.0690017365556,1.8746987509183537
mass_X_d_400_mass_pi_d_2_tau_pi_d_1000,cut4,400.0,2.0,1000.0,0.0004220276,5506.11,1496.0200681686401,1984.542953442335,2785.31736328125,4062.092579221129,5869.918162111044,3087.6439388922386,14.837206744768583
mass_X_d_400_mass_pi_d_5_tau_pi_d_1,cut1,400.0,5.0,1.0,0.0006779431,5506.11,1763.7178676605224,2362.6980937233566,3344.53166015625,4850.9852080518,6866.481375939846,1914.7185959445962,7.543946897673059
mass_X_d_400_mass_pi_d_5_tau_pi_d_2,cut1,400.0,5.0,2.0,0.0064863837,5506.11,184.0593030166626,245.53744430959225,341.4433447265625,480.2661239352822,661.1844871348143,196.49081513739097,1.8686891663387475
mass_X_d_400_mass_pi_d_5_tau_pi_d_5,cut6,400.0,5.0,5.0,0.0059022822,5506.11,51.2921166229248,67.8551959490776,99.47562011718749,148.6433646136522,218.35549908243118,100.2305221847472,2.3461905235967633
mass_X_d_400_mass_pi_d_5_tau_pi_d_25,cut6,400.0,5.0,25.0,0.0181265565,5506.11,15.29101593017578,22.663470039367674,34.9508935546875,50.55425893303938,73.19306859092787,32.653466312044785,1.3426363045136462
mass_X_d_400_mass_pi_d_5_tau_pi_d_45,cut6,400.0,5.0,45.0,0.01567502,5506.11,17.64347991943359,27.56793737411499,40.3279541015625,58.33183762488886,88.47226969080046,37.972549503825334,0.8498169091855393
mass_X_d_400_mass_pi_d_5_tau_pi_d_60,cut6,400.0,5.0,60.0,0.0125596311,5506.11,24.28078903198242,32.314873638153074,45.7050146484375,70.48178553882055,102.59139188434928,46.2012248473934,1.3376596331833648
mass_X_d_400_mass_pi_d_5_tau_pi_d_100,cut7,400.0,5.0,100.0,0.007636369,5506.11,35.7070426940918,45.55273461341858,67.2132568359375,99.36305103957652,146.95143373696132,78.1711309739356,2.7094066189937
mass_X_d_400_mass_pi_d_5_tau_pi_d_150,cut6,400.0,5.0,150.0,0.005326142,5506.11,56.83721031188964,75.19089280843734,110.22974121093749,164.71291837641968,241.96148900449273,110.9308114223522,2.5255035955427902
mass_X_d_400_mass_pi_d_5_tau_pi_d_225,cut7,400.0,5.0,225.0,0.002277112,5506.11,116.04788875579834,156.46937693059442,228.5250732421875,346.94347642242906,518.2089181456714,267.52242558414036,2.5318367081921664
mass_X_d_400_mass_pi_d_5_tau_pi_d_300,cut4,400.0,5.0,300.0,0.0037770727,5506.11,162.5510608291626,213.527130741477,293.0497998046875,407.5244700629264,560.5376399163902,323.5982718433897,2.281530942944718
mass_X_d_400_mass_pi_d_5_tau_pi_d_500,cut4,400.0,5.0,500.0,0.0021400218,5506.11,288.75445261001585,380.75013648122547,524.2634033203125,735.3268137538432,1013.7923542132974,577.9847981693068,2.1678259740094687
mass_X_d_400_mass_pi_d_5_tau_pi_d_1000,cut4,400.0,5.0,1000.0,0.0008064423,5506.11,775.714498386383,1016.0052555195987,1403.412802734375,2001.9775405982136,2807.3260948079824,1556.000201135699,7.612594905168409
mass_X_d_400_mass_pi_d_10_tau_pi_d_1,cut1,400.0,10.0,1.0,0.0012924342,5506.11,919.2778141593933,1235.4252790170908,1736.7905566406248,2491.3889995676277,3461.3281496876475,993.9465652197396,4.3585722071259
mass_X_d_400_mass_pi_d_10_tau_pi_d_2,cut1,400.0,10.0,2.0,0.0076125639,5506.11,155.68270614624024,209.3417271065712,293.0497998046875,412.19690725810824,563.7316644224525,166.67938293247272,2.013012961497192
mass_X_d_400_mass_pi_d_10_tau_pi_d_5,cut6,400.0,10.0,5.0,0.0063988594,5506.11,45.578989791870114,62.25759190320968,94.09855957031249,137.6079438970238,200.2698860602453,90.9815797723759,2.6754863948266565
mass_X_d_400_mass_pi_d_10_tau_pi_d_25,cut6,400.0,10.0,25.0,0.0129863281,5506.11,24.28078903198242,32.314873638153074,45.7050146484375,70.48178553882055,106.87266794431955,46.12658364522016,1.3222277166179652
mass_X_d_400_mass_pi_d_10_tau_pi_d_45,cut6,400.0,10.0,45.0,0.0138409997,5506.11,22.684474182128906,29.3007791519165,40.3279541015625,63.475801415573805,91.20499276265501,41.47296956054173,2.630491257683793
mass_X_d_400_mass_pi_d_10_tau_pi_d_60,cut7,400.0,10.0,60.0,0.012007555,5506.11,24.1967724609375,31.254164428710936,43.01648437499999,62.220624406831334,94.37041348250582,49.39816566100923,2.4957516380585805
mass_X_d_400_mass_pi_d_10_tau_pi_d_100,cut7,400.0,10.0,100.0,0.0082349008,5506.11,32.85047927856445,41.90851584434509,61.8361962890625,95.35771075157449,137.35203795455396,73.6313509096451,2.4590770095189045
mass_X_d_400_mass_pi_d_10_tau_pi_d_150,cut7,400.0,10.0,150.0,0.0054999637,5506.11,48.51956977844238,64.18734751939773,94.09855957031249,140.60859286023302,206.5525041214004,109.28924063307618,2.6680106294198267
mass_X_d_400_mass_pi_d_10_tau_pi_d_225,cut7,400.0,10.0,225.0,0.0037653435,5506.11,70.69994453430175,93.53013495683669,137.1150439453125,209.259166877456,308.23532324831933,162.2144791241921,2.596631409948489
mass_X_d_400_mass_pi_d_10_tau_pi_d_300,cut4,400.0,10.0,300.0,0.0036287488,5506.11,170.0075315093994,223.32195325255393,306.49245117187496,426.2182801915705,586.250402790606,337.91688703198315,2.2417048358707423
mass_X_d_400_mass_pi_d_10_tau_pi_d_500,cut4,400.0,10.0,500.0,0.0024468895,5506.11,253.80355905532835,333.71340995326636,454.3616162109375,640.9053975360096,886.8548840524255,505.8875541616525,2.5669793332449267
mass_X_d_400_mass_pi_d_10_tau_pi_d_1000,cut4,400.0,10.0,1000.0,0.00116971,5506.11,530.5173868274688,694.8541279810667,959.8053076171874,1346.2135991495848,1868.304222358167,1061.5911274891414,3.9543502786987257
mass_X_d_600_mass_pi_d_1_tau_pi_d_1,cut5,600.0,1.0,1.0,0.001159236,523.797,312.4031576385498,426.5366392552257,619.96285546875,918.9778754607439,1345.4816392829418,418.1854049377253,1.4885867744045231
mass_X_d_600_mass_pi_d_1_tau_pi_d_2,cut5,600.0,1.0,2.0,0.0165628277,523.797,21.856512010574342,29.51437270130217,42.71196240234375,62.290910151131456,88.9572455316335,28.74036290470986,0.2515280166747125
mass_X_d_600_mass_pi_d_1_tau_pi_d_5,cut5,600.0,1.0,5.0,0.0645742767,523.797,5.670684379577637,7.501842877149582,10.99769091796875,16.08281384312175,23.270756629899147,7.45140566356751,0.08077138483040747
mass_X_d_600_mass_pi_d_1_tau_pi_d_25,cut6,600.0,1.0,25.0,0.1058771843,523.797,2.8533253326416017,3.954792832374573,5.3709653320312505,8.282575872682035,12.055894285395743,5.494844806033186,0.11905916087577645
mass_X_d_600_mass_pi_d_1_tau_pi_d_45,cut6,600.0,1.0,45.0,0.0742747464,523.797,4.212051681518555,5.373462990760803,7.92856787109375,11.721001178272068,17.33459259162471,7.958089964839003,0.23950278011625484
mass_X_d_600_mass_pi_d_1_tau_pi_d_60,cut6,600.0,1.0,60.0,0.0546689858,523.797,5.327006538391114,7.276304293870926,10.99769091796875,16.08281384312175,23.54199846533686,10.798030645858114,0.23905004916600106
mass_X_d_600_mass_pi_d_1_tau_pi_d_100,cut6,600.0,1.0,100.0,0.0302925156,523.797,9.846769775390625,13.385452663421631,19.69353955078125,29.584449590329083,43.07774062069506,19.487223494746328,0.15510319336435704
mass_X_d_600_mass_pi_d_1_tau_pi_d_150,cut4,600.0,1.0,150.0,0.0317908771,523.797,19.572652868270875,25.614255179554224,35.03915478515625,48.866244245655835,67.11741319826245,38.69770894585347,0.18476680133217552
mass_X_d_600_mass_pi_d_1_tau_pi_d_225,cut4,600.0,1.0,225.0,0.0226581266,523.797,27.38033405685425,35.795086810022596,49.361729003906255,68.84076650092005,94.86969547104836,54.34731439231993,0.20731889660388902
mass_X_d_600_mass_pi_d_1_tau_pi_d_300,cut4,600.0,1.0,300.0,0.0141023144,523.797,43.74249639415741,57.19090176533908,77.49535693359375,106.84084107367696,143.57216745328904,85.40687965683075,0.20577449241559723
mass_X_d_600_mass_pi_d_1_tau_pi_d_500,cut4,600.0,1.0,500.0,0.0052708952,523.797,117.22411574935914,153.2640667770803,207.67732617187502,287.97496253782515,388.62186753326654,229.98870401009367,0.8264888364017526
mass_X_d_600_mass_pi_d_1_tau_pi_d_1000,cut4,600.0,1.0,1000.0,0.0011337702,523.797,547.0392130737305,715.1598691163064,986.2115390625,1375.3886049106122,1889.0856974229814,1087.0847004073187,3.9073975518306385
mass_X_d_600_mass_pi_d_2_tau_pi_d_1,cut1,600.0,2.0,1.0,0.0074751344,523.797,158.2756346282959,210.61304302185775,293.612771484375,414.1591479928494,565.6147381356955,169.7384315976304,0.7654791340593678
mass_X_d_600_mass_pi_d_2_tau_pi_d_2,cut5,600.0,2.0,2.0,0.0187789315,523.797,19.46075775718689,26.495717971131207,38.619798339843754,57.554439896017314,84.45488004872203,25.858060990325768,0.20127398302361932
mass_X_d_600_mass_pi_d_2_tau_pi_d_5,cut5,600.0,2.0,5.0,0.0576574376,523.797,6.330066284179688,8.374150188446045,12.2764921875,17.952909474380316,25.97665765602887,8.374525294474477,0.2405532747357837
mass_X_d_600_mass_pi_d_2_tau_pi_d_25,cut6,600.0,2.0,25.0,0.1098340333,523.797,2.8533253326416017,3.6400878324508668,5.3709653320312505,7.940033197875135,11.48052932760492,5.3505886794654955,0.11949756553453161
mass_X_d_600_mass_pi_d_2_tau_pi_d_45,cut6,600.0,2.0,45.0,0.0996503973,523.797,3.1250706024169923,3.9867628641128543,5.88248583984375,8.696227184213699,12.573913584144787,5.916924207418587,0.23286897482435864
mass_X_d_600_mass_pi_d_2_tau_pi_d_60,cut6,600.0,2.0,60.0,0.0672572717,523.797,4.3359355545043945,5.92257326245308,8.95160888671875,13.090662589274347,19.05170174745843,8.640350481232966,0.254750448428221
mass_X_d_600_mass_pi_d_2_tau_pi_d_100,cut6,600.0,2.0,100.0,0.0460258918,523.797,6.318077522277832,9.05039128947258,13.04377294921875,19.07496509696916,27.921906472552568,12.85789869434098,0.2597754719318387
mass_X_d_600_mass_pi_d_2_tau_pi_d_150,cut7,600.0,2.0,150.0,0.0199398049,523.797,12.96584599685669,17.98239355516434,26.34330615234375,39.99402578321099,59.26664739659429,30.673663555704383,0.20577119341652586
mass_X_d_600_mass_pi_d_2_tau_pi_d_225,cut4,600.0,2.0,225.0,0.0217704797,523.797,28.515270183563235,37.27882097831369,51.40781103515625,72.10409812438489,99.0806700372398,56.6317375896752,0.20347947194990262
mass_X_d_600_mass_pi_d_2_tau_pi_d_300,cut4,600.0,2.0,300.0,0.0203204477,523.797,30.716207056045533,40.00792681507767,54.988454589843755,77.12627322001755,106.33370707900822,60.92007968784885,0.21130133928091294
mass_X_d_600_mass_pi_d_2_tau_pi_d_500,cut4,600.0,2.0,500.0,0.0093525675,523.797,66.11902095222473,86.44697362549603,117.1381962890625,162.42922548517586,220.71188900452853,129.77926759291128,0.32414543641992344
mass_X_d_600_mass_pi_d_2_tau_pi_d_1000,cut4,600.0,2.0,1000.0,0.0027890952,523.797,222.09181423187258,291.1911040216684,398.98599609375003,556.4331573214531,764.2566589704752,440.34311062069827,1.6548923379442513
mass_X_d_600_mass_pi_d_5_tau_pi_d_1,cut1,600.0,5.0,1.0,0.0043457542,523.797,272.43262545776366,362.518617605567,505.38226171875004,716.9021734045745,976.3209353764057,292.1770705652598,0.670970213328627
mass_X_d_600_mass_pi_d_5_tau_pi_d_2,cut1,600.0,5.0,2.0,0.0356443688,523.797,33.32875808715821,44.06806620955467,61.3824609375,86.09444470618665,116.3412011936456,35.37266305384579,0.20367537675542519
mass_X_d_600_mass_pi_d_5_tau_pi_d_5,cut8,600.0,5.0,5.0,0.0193114373,523.797,8.653887966156006,12.069779706895352,18.15897802734375,28.726817975364625,44.24946257738024,12.263617063756408,0.09838275021629936
mass_X_d_600_mass_pi_d_5_tau_pi_d_25,cut6,600.0,5.0,25.0,0.0892758191,523.797,3.396815872192383,4.708086705207825,6.3940063476562505,9.860209325781092,14.202519763933495,6.476843404032743,0.2573026095711997
mass_X_d_600_mass_pi_d_5_tau_pi_d_45,cut6,600.0,5.0,45.0,0.0716360096,523.797,4.088167808532715,5.584140504598618,8.44008837890625,12.34262453190051,17.546706259232014,8.228078885698876,0.23736213016076738
mass_X_d_600_mass_pi_d_5_tau_pi_d_60,cut6,600.0,5.0,60.0,0.0700577665,523.797,4.351920570373536,5.629473010540009,8.44008837890625,12.611764821672812,18.118631082382056,8.414305125731177,0.2366479745952691
mass_X_d_600_mass_pi_d_5_tau_pi_d_100,cut7,600.0,5.0,100.0,0.0399603672,523.797,6.318077522277832,9.05039128947258,13.04377294921875,19.490909181162717,28.78953847891465,15.25580864923549,0.2599618328099428
mass_X_d_600_mass_pi_d_5_tau_pi_d_150,cut6,600.0,5.0,150.0,0.0299469925,523.797,10.000625553131105,13.786920083463192,19.69353955078125,29.898448221143337,43.720454555869104,19.813558701204883,0.16127299975076237
mass_X_d_600_mass_pi_d_5_tau_pi_d_225,cut7,600.0,5.0,225.0,0.0149862109,523.797,17.38270569419861,23.86593309478462,35.03915478515625,53.61494132076949,80.28872284635902,41.085901714177105,0.20300351409376474
mass_X_d_600_mass_pi_d_5_tau_pi_d_300,cut4,600.0,5.0,300.0,0.0229646908,523.797,27.144555072784424,35.35584230169654,48.594448242187504,68.15810173384845,93.96932071977854,53.65718292126472,0.2076519686125075
mass_X_d_600_mass_pi_d_5_tau_pi_d_500,cut4,600.0,5.0,500.0,0.0127491103,523.797,48.31421093273163,63.40582598208636,86.19120556640625,118.82957955998182,160.80182910883428,95.05401977270851,0.40004668960676654
mass_X_d_600_mass_pi_d_5_tau_pi_d_1000,cut4,600.0,5.0,1000.0,0.0048571985,523.797,127.61837231826783,166.85398402824998,226.092064453125,315.3121183193922,427.26314573818445,250.4850577130123,0.7667379240019773
mass_X_d_600_mass_pi_d_10_tau_pi_d_1,cut1,600.0,10.0,1.0,0.0054190164,523.797,218.6949983596802,291.5819251713753,407.17032421875,574.3391849609613,784.3716159904003,234.70806257990245,0.7788487565159072
mass_X_d_600_mass_pi_d_10_tau_pi_d_2,cut1,600.0,10.0,2.0,0.0375613999,523.797,31.617362325668335,42.13064013822377,59.08061865234375,83.80789277556539,115.63230320473016,34.01465712356865,0.18980545574161314
mass_X_d_600_mass_pi_d_10_tau_pi_d_5,cut6,600.0,10.0,5.0,0.0303571452,523.797,9.692913997650146,13.599408354341984,19.69353955078125,29.584449590329083,43.55119134584069,19.49215106756819,0.15292788548975333
mass_X_d_600_mass_pi_d_10_tau_pi_d_25,cut6,600.0,10.0,25.0,0.0790209897,523.797,3.940306411743164,5.026787959098816,7.417047363281251,10.964807679757476,16.21623174778931,7.453966420261143,0.13873072269618114
mass_X_d_600_mass_pi_d_10_tau_pi_d_45,cut7,600.0,10.0,45.0,0.0578870849,523.797,4.615673332214356,6.106151179075241,8.95160888671875,13.376114736976103,19.649368065889927,10.341202928759778,0.25428759669204987
mass_X_d_600_mass_pi_d_10_tau_pi_d_60,cut7,600.0,10.0,60.0,0.0574679525,523.797,4.615673332214356,6.106151179075241,8.95160888671875,13.376114736976103,19.649368065889927,10.428175402239887,0.25405293589554095
mass_X_d_600_mass_pi_d_10_tau_pi_d_100,cut7,600.0,10.0,100.0,0.0401411956,523.797,6.318077522277832,9.05039128947258,13.04377294921875,19.490909181162717,28.47433199594915,15.03901786893409,0.10384770716975253
mass_X_d_600_mass_pi_d_10_tau_pi_d_150,cut7,600.0,10.0,150.0,0.0280373839,523.797,9.189385997772217,12.892945582687855,18.670498535156252,28.345281091466546,41.8934640263021,21.847099388180627,0.20580227280271096
mass_X_d_600_mass_pi_d_10_tau_pi_d_225,cut6,600.0,10.0,225.0,0.0200669166,523.797,14.728193996429445,20.664036070883274,29.92394970703125,44.952994502618914,66.71473597477377,29.64145318673709,0.20188554037489825
mass_X_d_600_mass_pi_d_10_tau_pi_d_300,cut7,600.0,10.0,300.0,0.010956415,523.797,23.657823486328127,32.34468054771423,47.31564697265625,70.13651282389462,102.11121206192672,54.69368615085783,0.18338088845299758
mass_X_d_600_mass_pi_d_10_tau_pi_d_500,cut4,600.0,10.0,500.0,0.0138266884,523.797,44.5867050447464,58.51398184103519,79.54143896484375,110.29582897871734,148.84408500632645,87.55908409022639,0.4212011439243458
mass_X_d_600_mass_pi_d_10_tau_pi_d_1000,cut4,600.0,10.0,1000.0,0.0063773808,523.797,97.20188430976869,126.3735626230091,173.40545214843752,240.45200989061595,326.7306959540248,190.80350156045432,0.7449673801799122
mass_X_d_800_mass_pi_d_1_tau_pi_d_1,cut5,800.0,1.0,1.0,0.0025179433,85.0014,144.21029144897463,195.67541540966036,282.895284375,423.84937051706316,613.0670122143746,191.81177380314628,0.7901761780495035
mass_X_d_800_mass_pi_d_1_tau_pi_d_2,cut5,800.0,1.0,2.0,0.0425021544,85.0014,8.505360499191285,11.540715485841037,16.6848451171875,24.665624991363288,35.56229989471436,11.31059608630138,0.0359812430960832
mass_X_d_800_mass_pi_d_1_tau_pi_d_5,cut5,800.0,1.0,5.0,0.1828861602,85.0014,1.9601191062927248,2.70223150831461,3.8599268554687503,5.6754550055354835,8.067110763667523,2.599682028552617,0.033304898703878545
mass_X_d_800_mass_pi_d_1_tau_pi_d_25,cut6,800.0,1.0,25.0,0.2448172814,85.0014,1.219845835876465,1.685374123620987,2.36576162109375,3.5350848524920644,5.107247252943367,2.3761199834516584,0.013503877389942128
mass_X_d_800_mass_pi_d_1_tau_pi_d_45,cut6,800.0,1.0,45.0,0.2037085711,85.0014,1.4542819175720216,2.004881441652775,2.86381669921875,4.256482958178967,6.169436635145545,2.873830082262509,0.04219813896665724
mass_X_d_800_mass_pi_d_1_tau_pi_d_60,cut6,800.0,1.0,60.0,0.1630245351,85.0014,1.8336598091125489,2.472355257046223,3.61089931640625,5.36686974799633,7.713073496416212,3.575185023188373,0.015537794674335479
mass_X_d_800_mass_pi_d_1_tau_pi_d_100,cut6,800.0,1.0,100.0,0.0973764353,85.0014,3.032591222763062,4.175506386235356,6.018165527343751,9.016748648147285,13.042064986377955,6.011993042082356,0.016416813102075316
mass_X_d_800_mass_pi_d_1_tau_pi_d_150,cut4,800.0,1.0,150.0,0.1073713606,85.0014,5.783080936431885,7.477810312145949,10.2101291015625,14.076439719629288,19.048433219110965,11.252392894142226,0.052630733969435156
mass_X_d_800_mass_pi_d_1_tau_pi_d_225,cut4,800.0,1.0,225.0,0.0719138437,85.0014,8.597854126167297,11.241220756906271,15.23218447265625,21.121650052812697,28.503641861629486,16.859146209387568,0.059735257071256494
mass_X_d_800_mass_pi_d_1_tau_pi_d_300,cut4,800.0,1.0,300.0,0.0467206745,85.0014,13.261202836990357,17.32230181118846,23.6576162109375,32.993342096829416,44.707571796619895,26.14765895254326,0.11762212814624448
mass_X_d_800_mass_pi_d_1_tau_pi_d_500,cut4,800.0,1.0,500.0,0.0167582437,85.0014,37.256205967712404,48.79694931918383,67.40345390625001,95.61412159645558,132.7760100050211,74.72116657134195,0.27794824437838056
mass_X_d_800_mass_pi_d_1_tau_pi_d_1000,cut4,800.0,1.0,1000.0,0.0035891587,85.0014,171.97686205444336,225.69622431693077,306.801928125,427.87154627208713,583.7324679193497,340.32111743905847,0.8460214749925505
mass_X_d_800_mass_pi_d_2_tau_pi_d_1,cut5,800.0,2.0,1.0,0.006742622,85.0014,53.31718521881104,72.74536618237495,104.59156640625001,154.20343341994285,220.1251450964928,70.96213944439809,0.19155568447664265
mass_X_d_800_mass_pi_d_2_tau_pi_d_2,cut5,800.0,2.0,2.0,0.0582942449,85.0014,6.178023049163818,8.429225263872743,12.119340234375,17.86801725023389,25.654885269016027,8.223641145328369,0.03436515859770136
mass_X_d_800_mass_pi_d_2_tau_pi_d_5,cut8,800.0,2.0,5.0,0.0942525823,85.0014,1.7603782676696778,2.455240693509579,3.69390849609375,5.725830998799205,8.608299304394425,2.464193500020108,0.032197147733431866
mass_X_d_800_mass_pi_d_2_tau_pi_d_25,cut8,800.0,2.0,25.0,0.1554447816,85.0014,1.0655006423950195,1.455396542787552,2.19974326171875,3.4273012274600565,5.23657924329266,1.4853430345507237,0.03995451460694288
mass_X_d_800_mass_pi_d_2_tau_pi_d_45,cut6,800.0,2.0,45.0,0.2385876535,85.0014,1.2626474441528321,1.6703773479938508,2.4487708007812503,3.6591230063773694,5.227273389362544,2.431354259199058,0.032208493589898204
mass_X_d_800_mass_pi_d_2_tau_pi_d_60,cut6,800.0,2.0,60.0,0.1857745789,85.0014,1.5979267089843752,2.172181620025635,3.1958534179687503,4.699032867119461,6.77724999820143,3.1474566933911983,0.04033421476893514
mass_X_d_800_mass_pi_d_2_tau_pi_d_100,cut7,800.0,2.0,100.0,0.1093913408,85.0014,2.3816500968933108,3.2112200465083123,4.69001865234375,7.0455402875795965,10.230781333538891,5.489140268307139,0.02559464388658242
mass_X_d_800_mass_pi_d_2_tau_pi_d_150,cut7,800.0,2.0,150.0,0.0741966789,85.0014,3.479738327407837,4.777576262882352,7.01427568359375,10.453257993319632,15.254050126174093,8.125473196371832,0.031041752614327744
mass_X_d_800_mass_pi_d_2_tau_pi_d_225,cut4,800.0,2.0,225.0,0.0771839757,85.0014,7.979986970329285,10.472646772281825,14.23607431640625,19.626905973297358,26.55940109817982,15.676353686818413,0.03458699314097918
mass_X_d_800_mass_pi_d_2_tau_pi_d_300,cut4,800.0,2.0,300.0,0.0584383372,85.0014,10.562431733322144,13.861754036781193,18.8430837890625,26.128689648985866,35.50415445705056,20.82765759983904,0.055513334586586915
mass_X_d_800_mass_pi_d_2_tau_pi_d_500,cut4,800.0,2.0,500.0,0.031489822,85.0014,19.683875988006594,25.685623592573407,35.361910546875,49.316364669620995,67.73565275230408,39.02716692075311,0.1447566035678949
mass_X_d_800_mass_pi_d_2_tau_pi_d_1000,cut4,800.0,2.0,1000.0,0.0081708615,85.0014,75.56559090270997,98.24390753223896,134.80690781250001,185.3174464726925,249.36658778715136,147.83391810320944,0.5198966699959746
mass_X_d_800_mass_pi_d_5_tau_pi_d_1,cut5,800.0,5.0,1.0,0.0050761651,85.0014,70.88076032409668,96.57481706972122,140.1194953125,205.4666075574875,295.9537672841549,94.55870744917789,0.22218278062285057
mass_X_d_800_mass_pi_d_5_tau_pi_d_2,cut5,800.0,5.0,2.0,0.0479527155,85.0014,7.510952679634094,10.247859165108204,14.734129394531251,21.840564317536355,31.25929938311577,10.00656650607889,0.019451715022480706
mass_X_d_800_mass_pi_d_5_tau_pi_d_5,cut8,800.0,5.0,5.0,0.0678207774,85.0014,2.452661856079102,3.420784786462784,5.146569140625,7.977562660485506,12.113466919460894,3.437601937270796,0.03136818121562824
mass_X_d_800_mass_pi_d_5_tau_pi_d_25,cut6,800.0,5.0,25.0,0.2335772432,85.0014,1.3054490524291993,1.7270003089427948,2.53177998046875,3.702426829310507,5.357164275594056,2.499135218649484,0.02351492498405303
mass_X_d_800_mass_pi_d_5_tau_pi_d_45,cut6,800.0,5.0,45.0,0.2139183685,85.0014,1.3686787010192871,1.876162495172024,2.7808075195312503,4.0887689118638635,5.897087463377416,2.713851087181703,0.04218976792202017
mass_X_d_800_mass_pi_d_5_tau_pi_d_60,cut6,800.0,5.0,60.0,0.1950305941,85.0014,1.5385881156921388,2.074504985797405,3.02983505859375,4.454927095024288,6.425184857609868,2.998874337181494,0.031773657620842104
mass_X_d_800_mass_pi_d_5_tau_pi_d_100,cut7,800.0,5.0,100.0,0.1270212157,85.0014,2.044425304412842,2.8184565194249154,4.02594521484375,6.047941853342951,8.782175138229132,4.712354111408146,0.030465605340527644
mass_X_d_800_mass_pi_d_5_tau_pi_d_150,cut7,800.0,5.0,150.0,0.0902481094,85.0014,2.8652758449554443,3.9451336200982334,5.68612880859375,8.564603462706506,12.416351122346521,6.644865118850884,0.030895489218384697
mass_X_d_800_mass_pi_d_5_tau_pi_d_225,cut7,800.0,5.0,225.0,0.0465789957,85.0014,5.560561211585998,7.640235271820426,11.16473466796875,16.727623926311733,24.46438447517753,12.9738629092213,0.061172071781800834
mass_X_d_800_mass_pi_d_5_tau_pi_d_300,cut4,800.0,5.0,300.0,0.0647220506,85.0014,9.538759935379028,12.518324130132795,17.0168818359375,23.59639288773537,32.06322281981707,18.817004876230417,0.06775888278954141
mass_X_d_800_mass_pi_d_5_tau_pi_d_500,cut4,800.0,5.0,500.0,0.0420954152,85.0014,14.750179997634888,19.17692037421167,26.3139099609375,36.69785979838372,50.06579813271761,28.9959984583734,0.13452781657264093
mass_X_d_800_mass_pi_d_5_tau_pi_d_1000,cut4,800.0,5.0,1000.0,0.0158909349,85.0014,38.795766847229004,50.7233256803155,68.73160078125001,95.30641410627365,127.72763934588433,76.07228711847686,0.2573693901939408
mass_X_d_800_mass_pi_d_10_tau_pi_d_1,cut5,800.0,10.0,1.0,0.0053656473,85.0014,67.19657946624756,91.6822608827591,131.81857734375,194.3452824751854,279.04080905013086,89.42476060877307,0.2917205595899271
mass_X_d_800_mass_pi_d_10_tau_pi_d_2,cut5,800.0,10.0,2.0,0.0330065322,85.0014,10.959643628311158,14.953214047122003,21.4993775390625,32.04016274405122,46.23413715941906,14.576501493356997,0.054980170074116076
mass_X_d_800_mass_pi_d_10_tau_pi_d_5,cut8,800.0,10.0,5.0,0.0544638533,85.0014,3.040697587966919,4.286386262789369,6.43321142578125,9.997596038661898,15.303105035233498,4.293254235985363,0.03196208387071031
mass_X_d_800_mass_pi_d_10_tau_pi_d_25,cut6,800.0,10.0,25.0,0.2017554592,85.0014,1.45039086227417,1.9881721963763237,2.94682587890625,4.3328743673041465,6.249152603968978,2.901612876946286,0.0398923539989435
mass_X_d_800_mass_pi_d_10_tau_pi_d_45,cut7,800.0,10.0,45.0,0.1679701849,85.0014,1.5385881156921388,2.1211064527630805,3.02983505859375,4.5515435686782,6.627475401413441,3.5699041765469146,0.032829717087472385
mass_X_d_800_mass_pi_d_10_tau_pi_d_60,cut7,800.0,10.0,60.0,0.1627542091,85.0014,1.5729591041564943,2.156186748182774,3.1958534179687503,4.749988022178412,6.884733434396982,3.67779706459579,0.025002841855513006
mass_X_d_800_mass_pi_d_10_tau_pi_d_100,cut7,800.0,10.0,100.0,0.1323921103,85.0014,1.9601191062927248,2.70223150831461,3.8599268554687503,5.798541928128898,8.4664214472726,4.535199085639444,0.029973420688195213
mass_X_d_800_mass_pi_d_10_tau_pi_d_150,cut7,800.0,10.0,150.0,0.0887053899,85.0014,2.9032136341094974,3.986025166073442,5.8521471679687505,8.721357133287192,12.7267514457196,6.767827988342561,0.03327018338824147
mass_X_d_800_mass_pi_d_10_tau_pi_d_225,cut7,800.0,10.0,225.0,0.0587091435,85.0014,4.420238818359375,6.043295259475708,8.84047763671875,13.174815582928062,19.225518033608797,10.259720813373372,0.028468207255394444
mass_X_d_800_mass_pi_d_10_tau_pi_d_300,cut7,800.0,10.0,300.0,0.0348856197,85.0014,7.46231448841095,10.253252431207896,14.983156933593751,22.56804219712615,33.07681232603789,17.393457064126622,0.05502432492630109
mass_X_d_800_mass_pi_d_10_tau_pi_d_500,cut4,800.0,10.0,500.0,0.0439669818,85.0014,14.098752489852906,18.329990136864783,25.1517814453125,34.87662046070695,47.71605671585799,27.7182576919233,0.1373439961781588
mass_X_d_800_mass_pi_d_10_tau_pi_d_1000,cut4,800.0,10.0,1000.0,0.0221279477,85.0014,27.831745781707767,36.38847277066112,49.307452734375005,68.37199228785039,91.63069426710607,54.59411545092039,0.14560896958836228
mass_X_d_1000_mass_pi_d_1_tau_pi_d_1,cut5,1000.0,1.0,1.0,0.0028000388,18.45402,128.94160776123047,176.17456156951903,254.89615125,378.8514341491699,550.6631726538849,172.2141520107265,0.7020492482424731
mass_X_d_1000_mass_pi_d_1_tau_pi_d_2,cut5,1000.0,1.0,2.0,0.0508359133,18.45402,7.110539238510132,9.648117461028098,13.9486440234375,20.620630668354035,29.730324901714326,9.43746565619464,0.029343549385305392
mass_X_d_1000_mass_pi_d_1_tau_pi_d_5,cut5,1000.0,1.0,5.0,0.243367194,18.45402,1.4744722839546203,2.011753493407667,2.892451376953125,4.241395152634978,6.0381404120224715,1.95733166094296,0.004677318591293789
mass_X_d_1000_mass_pi_d_1_tau_pi_d_25,cut8,1000.0,1.0,25.0,0.2201995584,18.45402,0.7514826335906982,1.0545588135570287,1.576881591796875,2.4379974240320923,3.671775826148987,1.0588961456891979,0.008019024288681025
mass_X_d_1000_mass_pi_d_1_tau_pi_d_45,cut8,1000.0,1.0,45.0,0.1908178575,18.45402,0.8702063302230835,1.2157131753847004,1.8111611425781249,2.8146530703637005,4.224177708747983,1.2165702503173246,0.006954384737295594
mass_X_d_1000_mass_pi_d_1_tau_pi_d_60,cut8,1000.0,1.0,60.0,0.1437374286,18.45402,1.1555585414886476,1.613046968524754,2.4148815234375,3.7336191510772703,5.637163050053716,1.6176628099371393,0.006538042714130004
mass_X_d_1000_mass_pi_d_1_tau_pi_d_100,cut6,1000.0,1.0,100.0,0.1504614358,18.45402,1.9782472344589233,2.695356027240157,3.91066634765625,5.796824511113763,8.368127606710196,3.882963981552749,0.017935300247648306
mass_X_d_1000_mass_pi_d_1_tau_pi_d_150,cut4,1000.0,1.0,150.0,0.174107286,18.45402,3.550130674781799,4.641599803025723,6.28950486328125,8.671177387989163,11.733956945614814,6.93045432163031,0.024949709963824607
mass_X_d_1000_mass_pi_d_1_tau_pi_d_225,cut4,1000.0,1.0,225.0,0.1465689925,18.45402,4.211329797592163,5.50608146789968,7.4609026171875,10.345632378087045,13.96141878823042,8.254987624674385,0.027939099991158046
mass_X_d_1000_mass_pi_d_1_tau_pi_d_300,cut4,1000.0,1.0,300.0,0.0962714831,18.45402,6.404603140182495,8.405169914833904,11.4256334765625,15.843310813815593,21.3805300834322,12.583311936858031,0.05872307922396893
mass_X_d_1000_mass_pi_d_1_tau_pi_d_500,cut4,1000.0,1.0,500.0,0.0438699807,18.45402,14.084227681732177,18.378604449931384,25.302191484375,35.08518643881082,48.001401998291016,27.90623582175157,0.1001907633881753
mass_X_d_1000_mass_pi_d_1_tau_pi_d_1000,cut4,1000.0,1.0,1000.0,0.0080595084,18.45402,76.61279213745117,100.07462553102494,136.675085625,188.43039856538772,254.98662835115434,150.5804327846632,0.47449384283746887
mass_X_d_1000_mass_pi_d_2_tau_pi_d_1,cut5,1000.0,2.0,1.0,0.0085377645,18.45402,42.21255704040527,57.355732867441176,82.1780578125,121.15832437397003,172.9533057419014,55.85572887449602,0.21940087114948356
mass_X_d_1000_mass_pi_d_2_tau_pi_d_2,cut5,1000.0,2.0,2.0,0.0835133214,18.45402,4.3177693050384525,5.858676085631847,8.4701068359375,12.420285418903827,17.785970417819023,5.713264395471868,0.02317500850251745
mass_X_d_1000_mass_pi_d_2_tau_pi_d_5,cut8,1000.0,2.0,5.0,0.167489535,18.45402,0.9914291025924683,1.3850662545427679,2.063462197265625,3.206743974198997,4.812620399268866,1.390951036159495,0.00891752745495195
mass_X_d_1000_mass_pi_d_2_tau_pi_d_25,cut8,1000.0,2.0,25.0,0.2665395093,18.45402,0.6175532930374146,0.8705475882545114,1.306559033203125,2.009639123541713,3.0143558404263855,0.8702424616212932,0.006969710489602056
mass_X_d_1000_mass_pi_d_2_tau_pi_d_45,cut8,1000.0,2.0,45.0,0.2307690732,18.45402,0.7112510340499878,1.0026306706103683,1.504795576171875,2.3145497372934223,3.4893729958713053,1.0038398779238906,0.0078017955736080485
mass_X_d_1000_mass_pi_d_2_tau_pi_d_60,cut8,1000.0,2.0,60.0,0.2069051476,18.45402,0.800936174583435,1.118939987294376,1.666989111328125,2.5906010860311985,3.887924978438616,1.1254455898965947,0.006896220404896724
mass_X_d_1000_mass_pi_d_2_tau_pi_d_100,cut8,1000.0,2.0,100.0,0.1161936388,18.45402,1.427201034450531,1.9922333140209316,2.9825588964843748,4.635075477438569,7.025521165913343,2.005812018168123,0.005484280445934791
mass_X_d_1000_mass_pi_d_2_tau_pi_d_150,cut6,1000.0,2.0,150.0,0.1185745974,18.45402,2.506995343208313,3.415773455504179,4.95591357421875,7.38571530577004,10.65762856451869,4.916995280565563,0.02202845504952733
mass_X_d_1000_mass_pi_d_2_tau_pi_d_225,cut4,1000.0,2.0,225.0,0.1650525054,18.45402,3.7276002503585817,4.891968253809214,6.64993494140625,9.1680930795604,12.320035303698779,7.324653664369478,0.02589023935190481
mass_X_d_1000_mass_pi_d_2_tau_pi_d_300,cut4,1000.0,2.0,300.0,0.1272156062,18.45402,4.862356626205444,6.357263144096732,8.6142788671875,11.87628326864004,16.071150184825658,9.494113354934314,0.02903493504152932
mass_X_d_1000_mass_pi_d_2_tau_pi_d_500,cut4,1000.0,2.0,500.0,0.0606723544,18.45402,10.223120469818115,13.291225412646533,18.237761953125,25.289322124285697,34.36360691833019,20.082064363148678,0.07264819962313357
mass_X_d_1000_mass_pi_d_2_tau_pi_d_1000,cut4,1000.0,2.0,1000.0,0.0185567724,18.45402,33.24967470703125,43.35157240447998,59.1105328125,81.25853873428345,109.34299347455978,64.92742356244814,0.23938357988062461
mass_X_d_1000_mass_pi_d_5_tau_pi_d_1,cut5,1000.0,5.0,1.0,0.0057006502,18.45402,63.20479323120117,86.2359056417656,123.987946875,182.80028011505127,260.94708237602237,83.85772863049708,0.3321766186682673
mass_X_d_1000_mass_pi_d_5_tau_pi_d_2,cut5,1000.0,5.0,2.0,0.0648577031,18.45402,5.572798100509644,7.5719629948675635,10.8489453515625,15.995024070088864,22.965643665905,7.382466930654724,0.02596199111263199
mass_X_d_1000_mass_pi_d_5_tau_pi_d_5,cut8,1000.0,5.0,5.0,0.1286849512,18.45402,1.2892238951683044,1.7996306909134985,2.694214833984375,4.186971508773565,6.315021944480538,1.812203911364209,0.00702671857592154
mass_X_d_1000_mass_pi_d_5_tau_pi_d_25,cut8,1000.0,5.0,25.0,0.2337603008,18.45402,0.7027330575942993,0.9906231176689267,1.486774072265625,2.298683301229477,3.45327884060204,0.9965039505073875,0.00554241485465658
mass_X_d_1000_mass_pi_d_5_tau_pi_d_45,cut8,1000.0,5.0,45.0,0.239093592,18.45402,0.6970309411239624,0.9620036407318712,1.450731064453125,2.242957734604329,3.3695631032484767,0.9695613469861278,0.006951083028345383
mass_X_d_1000_mass_pi_d_5_tau_pi_d_60,cut8,1000.0,5.0,60.0,0.2051322073,18.45402,0.8095949440383912,1.1310366358056665,1.685010615234375,2.618607618446052,3.9299566384738682,1.135281071806213,0.006894767394043696
mass_X_d_1000_mass_pi_d_5_tau_pi_d_100,cut8,1000.0,5.0,100.0,0.148251082,18.45402,1.121310644416809,1.5617797552143038,2.333784755859375,3.6268414104491473,5.497311053996086,1.569048867498516,0.005754047892789118
mass_X_d_1000_mass_pi_d_5_tau_pi_d_150,cut7,1000.0,5.0,150.0,0.1513508722,18.45402,1.7117964833450316,2.3371846868026256,3.397053486328125,5.062571970781088,7.3876226109319925,3.951902623479281,0.014183204276257027
mass_X_d_1000_mass_pi_d_5_tau_pi_d_225,cut7,1000.0,5.0,225.0,0.0897209999,18.45402,2.8856581147384643,3.9481744826173784,5.74885974609375,8.56742944670856,12.502130149290561,6.696379586687001,0.03199227549311458
mass_X_d_1000_mass_pi_d_5_tau_pi_d_300,cut4,1000.0,5.0,300.0,0.1393175205,18.45402,4.424631191482544,5.806726218765378,7.8934187109375,10.88245188549757,14.726284456368685,8.696795508177015,0.02876868947159449
mass_X_d_1000_mass_pi_d_5_tau_pi_d_500,cut4,1000.0,5.0,500.0,0.0903652171,18.45402,6.849086638870239,8.904595681595206,12.2185796484375,16.942846940939425,23.02225785084486,13.44711237781919,0.04555265272122522
mass_X_d_1000_mass_pi_d_5_tau_pi_d_1000,cut4,1000.0,5.0,1000.0,0.0340413395,18.45402,18.147372847595214,23.726689223992825,32.15036296875,44.32487000863552,59.5635298878622,35.407220740848025,0.12553195791778346
mass_X_d_1000_mass_pi_d_10_tau_pi_d_1,cut5,1000.0,10.0,1.0,0.0093481794,18.45402,38.65781539489746,52.525776230192186,75.2578003125,110.95551329429627,158.3888155405426,51.05099180594911,0.20096986275143197
mass_X_d_1000_mass_pi_d_10_tau_pi_d_2,cut8,1000.0,10.0,2.0,0.0277694927,18.45402,6.0043286432647704,8.41897477840662,12.6510957421875,19.862273376595972,30.474569895186423,8.477451030061497,0.0221725088917977
mass_X_d_1000_mass_pi_d_10_tau_pi_d_5,cut8,1000.0,10.0,5.0,0.1185691848,18.45402,1.3956106052398682,1.9524785407707095,2.928494384765625,4.5277095410576464,6.836111684031486,1.962846835486555,0.004582364377638384
mass_X_d_1000_mass_pi_d_10_tau_pi_d_25,cut8,1000.0,10.0,25.0,0.2052492444,18.45402,0.8095949440383912,1.1310366358056665,1.685010615234375,2.6118910774165394,3.9267555226448176,1.1344934996424239,0.006894628500911802
mass_X_d_1000_mass_pi_d_10_tau_pi_d_45,cut8,1000.0,10.0,45.0,0.1948406227,18.45402,0.8528887913131714,1.1915198783621193,1.775118134765625,2.758640005533993,4.140114663663804,1.1959337095263183,0.006890801820881366
mass_X_d_1000_mass_pi_d_10_tau_pi_d_60,cut8,1000.0,10.0,60.0,0.1936561122,18.45402,0.8545431090545654,1.1991840222734214,1.793139638671875,2.772351373755634,4.185803641844093,1.2037762202606572,0.006891782490716216
mass_X_d_1000_mass_pi_d_10_tau_pi_d_100,cut7,1000.0,10.0,100.0,0.2319737407,18.45402,1.1215218339157105,1.5269459997734427,2.225655732421875,3.2991143562126157,4.803155369904041,2.5754454973175354,0.010379610498014526
mass_X_d_1000_mass_pi_d_10_tau_pi_d_150,cut7,1000.0,10.0,150.0,0.1505756579,18.45402,1.7208776317977905,2.34958382027328,3.415074990234375,5.1166546315974,7.400865402452945,3.9745876533086295,0.014493484667911262
mass_X_d_1000_mass_pi_d_10_tau_pi_d_225,cut7,1000.0,10.0,225.0,0.1209793817,18.45402,2.143890198097229,2.933282996658683,4.27109642578125,6.348118748788834,9.22703419879675,4.951823023084284,0.01236466844618985
mass_X_d_1000_mass_pi_d_10_tau_pi_d_300,cut7,1000.0,10.0,300.0,0.069528345,18.45402,3.73045130859375,5.114798473892212,7.4609026171875,11.11885873050213,16.225336118148565,8.6555346966845,0.028159219068239996
mass_X_d_1000_mass_pi_d_10_tau_pi_d_500,cut4,1000.0,10.0,500.0,0.0899305709,18.45402,6.872951052246093,9.002849946041108,12.2185796484375,16.942846940939425,23.02225785084486,13.48226316270225,0.06166049745356308
mass_X_d_1000_mass_pi_d_10_tau_pi_d_1000,cut4,1000.0,10.0,1000.0,0.0499278643,18.45402,12.328820566864014,16.11925299298167,21.842062734375,30.28721181130171,40.590282905688284,24.19392709347612,0.08692407382983466
mass_X_d_1250_mass_pi_d_1_tau_pi_d_1,cut5,1250.0,1.0,1.0,0.0028340581,3.4749,127.66100515136718,174.4248579071045,252.3646125,376.094748374176,548.8210484802246,170.591474596474,0.7006483446343508
mass_X_d_1250_mass_pi_d_1_tau_pi_d_2,cut5,1250.0,1.0,2.0,0.0523848754,3.4749,6.893914004516601,9.392936622047424,13.6281234375,20.201120464038848,29.2447199054718,9.198505215012373,0.03713474121057243
mass_X_d_1250_mass_pi_d_1_tau_pi_d_5,cut5,1250.0,1.0,5.0,0.2815241588,3.4749,1.2766423954010009,1.7418365982949733,2.5043712890625,3.6922925125837325,5.270741321182251,1.6977550242630088,0.004247278206386789
mass_X_d_1250_mass_pi_d_1_tau_pi_d_25,cut8,1250.0,1.0,25.0,0.2805515791,3.4749,0.587856780052185,0.8242638572126627,1.23861181640625,1.915002738815546,2.891345313209295,0.828988708548565,0.0018030762791223039
mass_X_d_1250_mass_pi_d_1_tau_pi_d_45,cut8,1250.0,1.0,45.0,0.2501911823,3.4749,0.6603322734832764,0.9258854059517383,1.3913173828125,2.1455529750823974,3.228900255256891,0.9304912696847749,0.002849125018927032
mass_X_d_1250_mass_pi_d_1_tau_pi_d_60,cut8,1250.0,1.0,60.0,0.2061098776,3.4749,0.8021681728363037,1.119748444712162,1.6763677734375,2.605176059371233,3.9097989412665366,1.1292154798500667,0.005195568763807842
mass_X_d_1250_mass_pi_d_1_tau_pi_d_100,cut8,1250.0,1.0,100.0,0.1318314902,3.4749,1.2568383922576905,1.754423705881834,2.6265357421875,4.060855002558231,6.131236193704605,1.7623971127166074,0.0052902621699935865
mass_X_d_1250_mass_pi_d_1_tau_pi_d_150,cut4,1250.0,1.0,150.0,0.2799680992,3.4749,2.198933644866943,2.8858011202275753,3.922836328125,5.408312616026401,7.2676623695611955,4.321724572941907,0.015260086058866048
mass_X_d_1250_mass_pi_d_1_tau_pi_d_225,cut4,1250.0,1.0,225.0,0.2183495844,3.4749,2.8272004005432128,3.696408404803276,5.008742578125,6.905423672926426,9.34451440937519,5.524110848947042,0.01964393914744007
mass_X_d_1250_mass_pi_d_1_tau_pi_d_300,cut4,1250.0,1.0,300.0,0.1580522185,3.4749,3.9075127487182617,5.108857431113719,6.922652343749999,9.599268917012214,12.954202423238755,7.6447460448015025,0.026999323120778917
mass_X_d_1250_mass_pi_d_1_tau_pi_d_500,cut4,1250.0,1.0,500.0,0.0772078774,3.4749,8.004422817993163,10.406664803195,14.2796671875,19.68700675292015,26.826162649440764,15.730067143188483,0.038795439778585246
mass_X_d_1250_mass_pi_d_1_tau_pi_d_1000,cut4,1250.0,1.0,1000.0,0.01749033,3.4749,35.305526953124996,46.24656264953613,62.76538125,87.03337770023346,117.45143176918029,69.38646060603733,0.22078951645244044
mass_X_d_1250_mass_pi_d_2_tau_pi_d_1,cut5,1250.0,2.0,1.0,0.0087113478,3.4749,41.516825866699214,56.33316960926056,81.44296874999999,120.72382456970215,173.7775824897766,55.080213481610734,0.22103635318863282
mass_X_d_1250_mass_pi_d_2_tau_pi_d_2,cut5,1250.0,2.0,2.0,0.0939868667,3.4749,3.831478102111816,5.220377149701118,7.5741960937499995,11.166933392071723,16.126170104742048,5.106391993426039,0.020973746964031103
mass_X_d_1250_mass_pi_d_2_tau_pi_d_5,cut8,1250.0,2.0,5.0,0.1970501603,3.4749,0.8407157238006592,1.1788102139174939,1.7713845703125,2.752837835150957,4.172558229625225,1.1854559454059037,0.004392912156431264
mass_X_d_1250_mass_pi_d_2_tau_pi_d_25,cut8,1250.0,2.0,25.0,0.3428039557,3.4749,0.48155938968658446,0.6752189328700304,1.0146436523437499,1.5687282443046568,2.3685267551600933,0.6801153896122872,0.0026843741379492694
mass_X_d_1250_mass_pi_d_2_tau_pi_d_45,cut8,1250.0,2.0,45.0,0.3128976247,3.4749,0.5288225578308106,0.7398300730615854,1.10966044921875,1.7156325815856457,2.5838493086636065,0.7429982419847795,0.0016650659374827807
mass_X_d_1250_mass_pi_d_2_tau_pi_d_60,cut8,1250.0,2.0,60.0,0.2843465768,3.4749,0.5829521741867065,0.8137443268239498,1.21825107421875,1.883523163998127,2.8438164098739622,0.8178619470252841,0.001607908811769342
mass_X_d_1250_mass_pi_d_2_tau_pi_d_100,cut8,1250.0,2.0,100.0,0.18616889,3.4749,0.8858115863800049,1.2420415194690226,1.8664013671875,2.885620511430502,4.335026198601723,1.2470583647487012,0.005386025958586072
mass_X_d_1250_mass_pi_d_2_tau_pi_d_150,cut8,1250.0,2.0,150.0,0.1271680702,3.4749,1.3055530586242676,1.8224247820615769,2.728339453125,4.240003188121318,6.363316012501716,1.8326805852405583,0.006154670656056944
mass_X_d_1250_mass_pi_d_2_tau_pi_d_225,cut4,1250.0,2.0,225.0,0.2559575886,3.4749,2.413463756561279,3.155470766276121,4.275755859375,5.894873543822765,7.921500182676315,4.7203222298599075,0.016957174040045375
mass_X_d_1250_mass_pi_d_2_tau_pi_d_300,cut4,1250.0,2.0,300.0,0.1924704495,3.4749,3.2026280960083007,4.1872596200108525,5.67386015625,7.867636508631706,10.617365676999091,6.2718385082030625,0.02248782993403624
mass_X_d_1250_mass_pi_d_2_tau_pi_d_500,cut4,1250.0,2.0,500.0,0.0997804109,3.4749,6.178318753051758,8.108202455449105,11.021948437499999,15.28354224743843,20.625121984148024,12.142107923644335,0.04301492018583266
mass_X_d_1250_mass_pi_d_2_tau_pi_d_1000,cut4,1250.0,2.0,1000.0,0.0321834941,3.4749,19.185121417236328,25.083488250017165,33.988865624999995,46.859568790340425,62.96964482860565,37.511191274355006,0.12280380046173305
mass_X_d_1250_mass_pi_d_5_tau_pi_d_1,cut5,1250.0,5.0,1.0,0.0063416155,3.4749,56.90572932128906,77.21399222602844,111.6311625,164.58218881072997,234.94080132751463,75.40637208666848,0.29986616052532744
mass_X_d_1250_mass_pi_d_5_tau_pi_d_2,cut5,1250.0,5.0,2.0,0.0844716403,3.4749,4.276233064270019,5.802316091966629,8.38862578125,12.367678668665885,17.757503323173523,5.66990357548423,0.023162827029111252
mass_X_d_1250_mass_pi_d_5_tau_pi_d_5,cut8,1250.0,5.0,5.0,0.1819462753,3.4749,0.9125880832672119,1.2738839688420296,1.9071228515624998,2.963783317887783,4.447989544844627,1.2782964695733867,0.005889786404253262
mass_X_d_1250_mass_pi_d_5_tau_pi_d_25,cut8,1250.0,5.0,25.0,0.3525273691,3.4749,0.4686748575210571,0.6571528751581907,0.9874959960937499,1.5267555469214915,2.305154815006256,0.661643067041845,0.002982270461638713
mass_X_d_1250_mass_pi_d_5_tau_pi_d_45,cut8,1250.0,5.0,45.0,0.3254468518,3.4749,0.5098801746368408,0.7117429714545608,1.0655455078125,1.6474269742280245,2.4873491170585154,0.7152776079718668,0.0021171551262131882
mass_X_d_1250_mass_pi_d_5_tau_pi_d_60,cut8,1250.0,5.0,60.0,0.3021764077,3.4749,0.5459820505142212,0.7655492214292288,1.15038193359375,1.7785915241003036,2.671952433925867,0.7703694803779698,0.0020629379980567123
mass_X_d_1250_mass_pi_d_5_tau_pi_d_100,cut8,1250.0,5.0,100.0,0.2291369661,3.4749,0.7242247066497802,1.0109469713687895,1.5134818359375,2.3520414386630057,3.5298991068720817,1.016909112866377,0.0036006303810830775
mass_X_d_1250_mass_pi_d_5_tau_pi_d_150,cut8,1250.0,5.0,150.0,0.1706712107,3.4749,0.9710456829071045,1.3554849702894687,2.0292873046874997,3.1536342316389083,4.732914420640468,1.365409807990253,0.005285236956243342
mass_X_d_1250_mass_pi_d_5_tau_pi_d_225,cut8,1250.0,5.0,225.0,0.1000501643,3.4749,1.6556623832702637,2.3214883124113084,3.488473828125,5.393486953532696,8.143296070289612,2.329146012991795,0.008111988582979627
mass_X_d_1250_mass_pi_d_5_tau_pi_d_300,cut4,1250.0,5.0,300.0,0.2487388062,3.4749,2.4814654541015626,3.2504612588882447,4.411494140625,6.082012425935268,8.230263348484039,4.867211781024424,0.017290755307370655
mass_X_d_1250_mass_pi_d_5_tau_pi_d_500,cut4,1250.0,5.0,500.0,0.1510966413,3.4749,4.093516612243652,5.322039604675769,7.30271953125,10.06806970360279,13.624251118612289,8.021829757860697,0.028530619106514034
mass_X_d_1250_mass_pi_d_5_tau_pi_d_1000,cut4,1250.0,5.0,1000.0,0.060634002,3.4749,10.17019072265625,13.321890451812743,18.0803390625,24.926895452070234,33.49663208971023,19.909182527604866,0.05922668571376737
mass_X_d_1250_mass_pi_d_10_tau_pi_d_1,cut5,1250.0,10.0,1.0,0.0099813495,3.4749,35.98124908447266,49.09241380805969,70.58390625,103.78326288757324,148.38390608711242,47.8048462010698,0.18883843252546834
mass_X_d_1250_mass_pi_d_10_tau_pi_d_2,cut8,1250.0,10.0,2.0,0.048069351,3.4749,3.4659391525268552,4.859769317364693,7.30271953125,11.40708178460598,17.397385951423644,4.881849644870108,0.01983031301852331
mass_X_d_1250_mass_pi_d_10_tau_pi_d_5,cut8,1250.0,10.0,5.0,0.1806843261,3.4749,0.9180229167938232,1.2872065601885319,1.9342705078125,3.005972248739004,4.556241321229934,1.290744951563766,0.006090633318947874
mass_X_d_1250_mass_pi_d_10_tau_pi_d_25,cut8,1250.0,10.0,25.0,0.3055144763,3.4749,0.5417601127624512,0.7579298913627862,1.13680810546875,1.757605278968811,2.6537005894124506,0.7622578310801117,0.0020637990631762293
mass_X_d_1250_mass_pi_d_10_tau_pi_d_45,cut8,1250.0,10.0,45.0,0.3059240513,3.4749,0.5395397844314574,0.7565161925733089,1.13680810546875,1.7621366542696952,2.6492222368776797,0.7621727490172204,0.0020660783725424243
mass_X_d_1250_mass_pi_d_10_tau_pi_d_60,cut8,1250.0,10.0,60.0,0.3069144025,3.4749,0.5407327966690063,0.7548102472096682,1.13002119140625,1.7561206415176391,2.661804166460037,0.7600920283336962,0.0020670376224853396
mass_X_d_1250_mass_pi_d_10_tau_pi_d_100,cut8,1250.0,10.0,100.0,0.2315797426,3.4749,0.7147999099731445,1.0000149611413478,1.4999080078125,2.3309468696773052,3.4982407873392103,1.0076403427717369,0.004527928499279443
mass_X_d_1250_mass_pi_d_10_tau_pi_d_150,cut8,1250.0,10.0,150.0,0.170774635,3.4749,0.9710456829071045,1.3554849702894687,2.0292873046874997,3.1536342316389083,4.732914420640468,1.364692606970512,0.005296803421209983
mass_X_d_1250_mass_pi_d_10_tau_pi_d_225,cut8,1250.0,10.0,225.0,0.1075184728,3.4749,1.5393834571838378,2.1488292020916937,3.216997265625,4.99940642888546,7.57774861907959,2.1627247087125148,0.009859347572400383
mass_X_d_1250_mass_pi_d_10_tau_pi_d_300,cut7,1250.0,10.0,300.0,0.1170235882,3.4749,2.214363269805908,3.0297047003388404,4.411494140625,6.574376032698154,9.540301801729202,5.124113108730981,0.015499971436101415
mass_X_d_1250_mass_pi_d_10_tau_pi_d_500,cut4,1250.0,10.0,500.0,0.1540423373,3.4749,4.0022114089965815,5.252357748234272,7.13983359375,9.843503376460076,13.320365218806266,7.850750753089581,0.027703694817546618
mass_X_d_1250_mass_pi_d_10_tau_pi_d_1000,cut4,1250.0,10.0,1000.0,0.0796996794,3.4749,7.75373117980957,10.137575922131537,13.736714062499999,18.93845122447014,25.449391731119157,15.143972310078704,0.03979520467744978
mass_X_d_1500_mass_pi_d_1_tau_pi_d_1,cut5,1500.0,1.0,1.0,0.0023428789,0.768744,155.45876742773436,212.6996033203125,309.707739,466.49027195947264,687.4238911376953,208.5584051781964,0.8821902101435083
mass_X_d_1500_mass_pi_d_1_tau_pi_d_2,cut5,1500.0,1.0,2.0,0.0513320388,0.768744,7.0726887861328125,9.636516770416259,13.9815315,20.83644213491821,30.405845123657226,9.43575318957152,0.038887692353072
mass_X_d_1500_mass_pi_d_1_tau_pi_d_5,cut5,1500.0,1.0,5.0,0.2987488079,0.768744,1.2107811840820313,1.6462694885730742,2.3843075625,3.5342857600708006,5.116508338932038,1.6117757389282905,0.006630937908505591
mass_X_d_1500_mass_pi_d_1_tau_pi_d_25,cut8,1500.0,1.0,25.0,0.3067081843,0.768744,0.5401536267700195,0.7573768891496658,1.13810146875,1.7686778739223479,2.6808375899391175,0.761344533082387,0.0020434270904169053
mass_X_d_1500_mass_pi_d_1_tau_pi_d_45,cut8,1500.0,1.0,45.0,0.2943384236,0.768744,0.5647164614868164,0.7882891000728607,1.18014215625,1.8340116125392913,2.7798658648166654,0.7918303440340615,0.002535047987713078
mass_X_d_1500_mass_pi_d_1_tau_pi_d_60,cut8,1500.0,1.0,60.0,0.2539965399,0.768744,0.652369652709961,0.9106443333950043,1.3633194375,2.1241144602012634,3.2138512499198915,0.9187583746192493,0.0032386249419354605
mass_X_d_1500_mass_pi_d_1_tau_pi_d_100,cut8,1500.0,1.0,100.0,0.1708781472,0.768744,0.9662906568603515,1.354885310491562,2.0359704375,3.147789145248413,4.752654121101379,1.3641965363636355,0.0056241616706488124
mass_X_d_1500_mass_pi_d_1_tau_pi_d_150,cut4,1500.0,1.0,150.0,0.3311728384,0.768744,1.8644997985839844,2.4377306649684907,3.303196875,4.580365307533264,6.181197327507019,3.6528031204454963,0.008841897831370007
mass_X_d_1500_mass_pi_d_1_tau_pi_d_225,cut4,1500.0,1.0,225.0,0.2646424784,0.768744,2.3310059765625,3.0533750161743165,4.144010625,5.713239915904999,7.67742249243164,4.567451520136198,0.013660920867061518
mass_X_d_1500_mass_pi_d_1_tau_pi_d_300,cut4,1500.0,1.0,300.0,0.1989535822,0.768744,3.105239664550781,4.059929616565705,5.50132425,7.584533276687622,10.263495149917603,6.077898141308641,0.019405130512463502
mass_X_d_1500_mass_pi_d_1_tau_pi_d_500,cut4,1500.0,1.0,500.0,0.0938268025,0.768744,6.57148496484375,8.624179596038818,11.723346,16.256133278503416,21.937631903503416,12.947064225475007,0.040978437645838334
mass_X_d_1500_mass_pi_d_1_tau_pi_d_1000,cut4,1500.0,1.0,1000.0,0.0224357798,0.768744,27.589951898437498,36.10629959436035,49.391802,68.88271046539306,93.97463732226562,54.56232885800052,0.16535015477827278
mass_X_d_1500_mass_pi_d_2_tau_pi_d_1,cut5,1500.0,2.0,1.0,0.0068331053,0.768744,52.85072771630859,72.21062266644287,104.47711425,155.70048965075682,225.94230258178712,70.58202016882267,0.2873611112417619
mass_X_d_1500_mass_pi_d_2_tau_pi_d_2,cut5,1500.0,2.0,2.0,0.0966273475,0.768744,3.755087345214844,5.116295364257812,7.42318425,11.062647241355895,16.143308753494264,5.010487799389941,0.020586998638027182
mass_X_d_1500_mass_pi_d_2_tau_pi_d_5,cut8,1500.0,2.0,5.0,0.218478835,0.768744,0.761060782836914,1.0671220684375762,1.6035519375,2.5175831547203065,3.8627132354049682,1.0750115361520909,0.004306634444877396
mass_X_d_1500_mass_pi_d_2_tau_pi_d_25,cut8,1500.0,2.0,25.0,0.380362114,0.768744,0.4375386897583008,0.6116032392396926,0.9218922187499999,1.4326757765150069,2.1715491620407104,0.6166037726715495,0.002137250532183243
mass_X_d_1500_mass_pi_d_2_tau_pi_d_45,cut8,1500.0,2.0,45.0,0.3422437049,0.768744,0.48314532843017577,0.677442655245781,1.01798521875,1.5820101540355682,2.3978996355342863,0.6833635460007987,0.0018330317169971387
mass_X_d_1500_mass_pi_d_2_tau_pi_d_60,cut8,1500.0,2.0,60.0,0.3326664921,0.768744,0.4973974030151367,0.6974261679010391,1.04801428125,1.628677084007263,2.468634169956207,0.7011848765212049,0.0018611582561494056
mass_X_d_1500_mass_pi_d_2_tau_pi_d_100,cut8,1500.0,2.0,100.0,0.2360993908,0.768744,0.7012255297851563,0.9810242154979706,1.4714240625,2.286681218158722,3.4659905371284485,0.9886415952680369,0.0046019809941894915
mass_X_d_1500_mass_pi_d_2_tau_pi_d_150,cut8,1500.0,2.0,150.0,0.1712509905,0.768744,0.9684959161376953,1.3519258422775269,2.0239588125,3.145353316143036,4.720486514282227,1.361146022538137,0.005613520363583097
mass_X_d_1500_mass_pi_d_2_tau_pi_d_225,cut4,1500.0,2.0,225.0,0.3251047927,0.768744,1.8985874765625,2.486951824768066,3.375266625,4.653392527153015,6.2532047613372805,3.717687566964067,0.008907522155939374
mass_X_d_1500_mass_pi_d_2_tau_pi_d_300,cut4,1500.0,2.0,300.0,0.2503745301,0.768744,2.4611397341308594,3.2178046610412596,4.360219875,6.046082308582306,8.102831523033142,4.82554320939158,0.014667217895185315
mass_X_d_1500_mass_pi_d_2_tau_pi_d_500,cut4,1500.0,2.0,500.0,0.1561297383,0.768744,3.9455842104492187,5.178042257457733,7.038812249999999,9.76034193221283,13.171569385940552,7.774979139949689,0.024704582975446837
mass_X_d_1500_mass_pi_d_2_tau_pi_d_1000,cut4,1500.0,2.0,1000.0,0.0477876887,0.768744,12.900579090820312,16.930253473846435,23.014273499999998,31.912653040466306,43.066089076080324,25.41688392887685,0.08051017666441662
mass_X_d_1500_mass_pi_d_5_tau_pi_d_1,cut5,1500.0,5.0,1.0,0.0054676084,0.768744,66.20620018359375,90.20574951141357,130.878666,195.04629166333007,283.03834208862304,88.35511719669336,0.3615485775535631
mass_X_d_1500_mass_pi_d_5_tau_pi_d_2,cut5,1500.0,5.0,2.0,0.0917873074,0.768744,3.925220752441406,5.378057001205444,7.759509749999999,11.502007762664794,16.65120459828186,5.24328662003314,0.02120923800308309
mass_X_d_1500_mass_pi_d_5_tau_pi_d_5,cut8,1500.0,5.0,5.0,0.2025634634,0.768744,0.8203799113769531,1.15289120358181,1.7356798125,2.71118739743042,4.134937757251739,1.161496625779581,0.005430991269583886
mass_X_d_1500_mass_pi_d_5_tau_pi_d_25,cut8,1500.0,5.0,25.0,0.4019436795,0.768744,0.4118849555053711,0.5775248170452117,0.86783990625,1.35559369871521,2.0674688786258697,0.5838323926004251,0.002665798515932888
mass_X_d_1500_mass_pi_d_5_tau_pi_d_45,cut8,1500.0,5.0,45.0,0.3833957566,0.768744,0.4318378599243164,0.6055018447322845,0.90988059375,1.4140089678697585,2.1432554215850828,0.610555551580724,0.0022348361149446246
mass_X_d_1500_mass_pi_d_5_tau_pi_d_60,cut8,1500.0,5.0,60.0,0.3733070349,0.768744,0.44323951959228514,0.6214886915130615,0.93390384375,1.4513425851602555,2.19984308577919,0.6267954752000682,0.001972863372625557
mass_X_d_1500_mass_pi_d_5_tau_pi_d_100,cut8,1500.0,5.0,100.0,0.301733773,0.768744,0.5487048715209961,0.7693669784145355,1.15611890625,1.7966781785316468,2.7232783839054107,0.7731252382241615,0.0022334117066685933
mass_X_d_1500_mass_pi_d_5_tau_pi_d_150,cut8,1500.0,5.0,150.0,0.2059125575,0.768744,0.8042627504882812,1.125174712469101,1.6876333125,2.622683407207489,3.975278965026855,1.130630692108221,0.005203157949432831
mass_X_d_1500_mass_pi_d_5_tau_pi_d_225,cut8,1500.0,5.0,225.0,0.129380487,0.768744,1.2817483044433593,1.789195472808838,2.678592375,4.162693012687683,6.3095173179702755,1.804143402341024,0.006758476693650875
mass_X_d_1500_mass_pi_d_5_tau_pi_d_300,cut4,1500.0,5.0,300.0,0.3019630956,0.768744,2.0475597788085937,2.6770714938926696,3.62751075,5.001154877128601,6.76763207384491,4.003543611381882,0.00922051092784495
mass_X_d_1500_mass_pi_d_5_tau_pi_d_500,cut4,1500.0,5.0,500.0,0.1925453167,0.768744,3.2137196528320313,4.182387854850769,5.69351025,7.849495032234191,10.585078110420227,6.279898717554101,0.020165769765701613
mass_X_d_1500_mass_pi_d_5_tau_pi_d_1000,cut4,1500.0,5.0,1000.0,0.0817254556,0.768744,7.566479182617187,9.892754262199402,13.4049735,18.58795449719238,25.084422523773192,14.828264890359794,0.047559661532167924
mass_X_d_1500_mass_pi_d_10_tau_pi_d_1,cut5,1500.0,10.0,1.0,0.0092350885,0.768744,39.135375703125,53.211410774230956,77.066586,114.23666513342285,165.3779180863037,52.087059597983256,0.2104349659635454
mass_X_d_1500_mass_pi_d_10_tau_pi_d_2,cut8,1500.0,10.0,2.0,0.0493929488,0.768744,3.358422197753906,4.730347864860534,7.13490525,11.14495077268982,17.162462583709715,4.769583560849139,0.01323529585555958
mass_X_d_1500_mass_pi_d_10_tau_pi_d_5,cut8,1500.0,10.0,5.0,0.2266567008,0.768744,0.7325566336669922,1.0271548598442077,1.5434938125,2.423291641874313,3.6825696519241333,1.0357273400706088,0.0036729593044057458
mass_X_d_1500_mass_pi_d_10_tau_pi_d_25,cut8,1500.0,10.0,25.0,0.402699507,0.768744,0.4118849555053711,0.5775248170452117,0.86783990625,1.35559369871521,2.0674688786258697,0.5830980603026045,0.0026776312773691474
mass_X_d_1500_mass_pi_d_10_tau_pi_d_45,cut8,1500.0,10.0,45.0,0.3688803504,0.768744,0.44894034942626954,0.62948211490345,0.94591546875,1.4775502918338774,2.2534696322135925,0.6356847732530125,0.0018294154194910721
mass_X_d_1500_mass_pi_d_10_tau_pi_d_60,cut8,1500.0,10.0,60.0,0.3540951359,0.768744,0.46889325384521485,0.6574590509490966,0.98795615625,1.543219254787445,2.3307955678482055,0.661218450130274,0.001410410528333778
mass_X_d_1500_mass_pi_d_10_tau_pi_d_100,cut8,1500.0,10.0,100.0,0.3016641511,0.768744,0.5487048715209961,0.7693669784145355,1.15611890625,1.8058947400360108,2.727526697135925,0.7746779554522191,0.0022584765774570216
mass_X_d_1500_mass_pi_d_10_tau_pi_d_150,cut8,1500.0,10.0,150.0,0.219353283,0.768744,0.7553599530029297,1.0591285534057617,1.5915403125,2.460661182603836,3.743080485569,1.0628331927669412,0.004109971739099277
mass_X_d_1500_mass_pi_d_10_tau_pi_d_225,cut8,1500.0,10.0,225.0,0.1461378444,0.768744,1.1316147220458983,1.5866944971714019,2.3843075625,3.6863489443359376,5.607557923645019,1.5974420911526266,0.005811438871870655
mass_X_d_1500_mass_pi_d_10_tau_pi_d_300,cut8,1500.0,10.0,300.0,0.1041985391,0.768744,1.5905315236816406,2.2301652175598146,3.351243375,5.208033197124481,7.893970449142456,2.2439313251060957,0.008136641285879095
mass_X_d_1500_mass_pi_d_10_tau_pi_d_500,cut4,1500.0,10.0,500.0,0.2264982542,0.768744,2.7255597055664063,3.5635190084266664,4.82867325,6.695661296585083,9.035786694740295,5.3432692926268865,0.016529784539092433
mass_X_d_1500_mass_pi_d_10_tau_pi_d_1000,cut4,1500.0,10.0,1000.0,0.1080433768,0.768744,5.722319381835938,7.481617022666931,10.1378115,14.057557227081299,18.970656423843383,11.218773368969398,0.03593765830111551
mass_X_d_2000_mass_pi_d_1_tau_pi_d_1,cut5,2000.0,1.0,1.0,0.0009660954,0.0487065,419.7368254394531,616.9524992437363,1013.7040312500001,1846.0815874328614,3072.8661513519287,651.5709630570849,1.5981228288128495
mass_X_d_2000_mass_pi_d_1_tau_pi_d_2,cut5,2000.0,1.0,2.0,0.0465174416,0.0487065,7.814313420043946,10.691589559524536,15.5678150625,23.44867034916687,34.554152191955566,10.48943756970939,0.044078694439264855
mass_X_d_2000_mass_pi_d_1_tau_pi_d_5,cut5,2000.0,1.0,5.0,0.3076753369,0.0487065,1.1814997668914795,1.609789920759201,2.3356288828125,3.4807485299491883,5.107620024490356,1.5757620345596837,0.006486001499550442
mass_X_d_2000_mass_pi_d_1_tau_pi_d_25,cut8,2000.0,1.0,25.0,0.3510248341,0.0487065,0.4742878676147461,0.66386927542305,1.00761571875,1.5739279987449646,2.4237416361637116,0.6722465590741611,0.0018245424909670439
mass_X_d_2000_mass_pi_d_1_tau_pi_d_45,cut8,2000.0,1.0,45.0,0.3307248149,0.0487065,0.5042299982299805,0.7070064967660904,1.06241053125,1.6679889709796905,2.5591855938262937,0.7112114759846415,0.001513007531612334
mass_X_d_2000_mass_pi_d_1_tau_pi_d_60,cut8,2000.0,1.0,60.0,0.3038854205,0.0487065,0.5475735510864258,0.7677807426424026,1.15373521875,1.802171342891693,2.748561877824783,0.7734766992636559,0.0019214856368277534
mass_X_d_2000_mass_pi_d_1_tau_pi_d_100,cut8,2000.0,1.0,100.0,0.2121987202,0.0487065,0.7816287365112304,1.095961373093605,1.64688853125,2.5724926293869017,3.9234090559387207,1.1047808734277131,0.0032715556109483793
mass_X_d_2000_mass_pi_d_1_tau_pi_d_150,cut8,2000.0,1.0,150.0,0.1490044945,0.0487065,1.1124845233154297,1.5598710721549989,2.3440003125,3.6427171886672975,5.5213744437446595,1.5705808875981055,0.0047954859346540125
mass_X_d_2000_mass_pi_d_1_tau_pi_d_225,cut4,2000.0,1.0,225.0,0.3190871752,0.0487065,1.9316360529785157,2.535009411752701,3.445984875,4.778361750835419,6.448393227287292,3.8061573781654405,0.01205863580361922
mass_X_d_2000_mass_pi_d_1_tau_pi_d_300,cut4,2000.0,1.0,300.0,0.2651103427,0.0487065,2.3275190603027345,3.054551976705551,4.152229125,5.757672613437652,7.823633918952942,4.590204041449689,0.014383469293981474
mass_X_d_2000_mass_pi_d_1_tau_pi_d_500,cut4,2000.0,1.0,500.0,0.1338254197,0.0487065,4.60896552923584,6.048639994457245,8.22226603125,11.401373681648254,15.49240084790039,9.081478053527674,0.028668186399240684
mass_X_d_2000_mass_pi_d_1_tau_pi_d_1000,cut4,2000.0,1.0,1000.0,0.0423191949,0.0487065,14.6306073482666,19.1110717290802,26.1005956875,36.192291746795654,49.51607611239624,28.839658178921134,0.08892316762578337
mass_X_d_2000_mass_pi_d_2_tau_pi_d_1,cut5,2000.0,2.0,1.0,0.0059784684,0.0487065,60.619757919433596,82.94030825720215,120.76776674999999,180.94094932580566,266.08413271435546,81.41353071334797,0.3396966002765697
mass_X_d_2000_mass_pi_d_2_tau_pi_d_2,cut5,2000.0,2.0,2.0,0.1017502497,0.0487065,3.5649447934570313,4.8673628166275025,7.074619125,10.599586328407288,15.502044639770508,4.7704454638944584,0.019728054596769806
mass_X_d_2000_mass_pi_d_2_tau_pi_d_5,cut8,2000.0,2.0,5.0,0.2218451475,0.0487065,0.7510742072753906,1.0554949417905808,1.5890495625,2.5074823167171476,3.869543989402771,1.0652479531726184,0.0027917811095861944
mass_X_d_2000_mass_pi_d_2_tau_pi_d_25,cut8,2000.0,2.0,25.0,0.4229421788,0.0487065,0.39404581146240236,0.5515530273170471,0.83714296875,1.3076441282072067,2.013682604095459,0.5582090755168592,0.0015055309769730944
mass_X_d_2000_mass_pi_d_2_tau_pi_d_45,cut8,2000.0,2.0,45.0,0.3907124044,0.0487065,0.4255694763793945,0.5994158999090194,0.90411440625,1.4194633598356248,2.177874366422653,0.604343755122011,0.0016265053350062297
mass_X_d_2000_mass_pi_d_2_tau_pi_d_60,cut8,2000.0,2.0,60.0,0.3904838938,0.0487065,0.4255694763793945,0.5975465605516433,0.90411440625,1.4122556919078826,2.1538862145080566,0.6034426926782219,0.0016685053925635791
mass_X_d_2000_mass_pi_d_2_tau_pi_d_100,cut8,2000.0,2.0,100.0,0.3016606574,0.0487065,0.5526302989196777,0.7700916834626198,1.164389765625,1.8188140557689667,2.773944462884903,0.7789668931831842,0.0019852443000302434
mass_X_d_2000_mass_pi_d_2_tau_pi_d_150,cut8,2000.0,2.0,150.0,0.2263329707,0.0487065,0.7353956134643554,1.0311355603723527,1.54947553125,2.420330338022232,3.6913404500198364,1.037570166170039,0.0027674916671469344
mass_X_d_2000_mass_pi_d_2_tau_pi_d_225,cut8,2000.0,2.0,225.0,0.1275535479,0.0487065,1.3003065856933593,1.8232258898849487,2.739740625,4.27956270275116,6.463622183761597,1.836678768678519,0.00535097454368887
mass_X_d_2000_mass_pi_d_2_tau_pi_d_300,cut4,2000.0,2.0,300.0,0.3174411024,0.0487065,1.9452871911621095,2.552924672613144,3.470338125,4.812131001228333,6.538814180900574,3.8309819314896423,0.012047547130702779
mass_X_d_2000_mass_pi_d_2_tau_pi_d_500,cut4,2000.0,2.0,500.0,0.1928817757,0.0487065,3.2011919040527346,4.201128857574463,5.710837125,7.918910212600708,10.760364005584718,6.30454632107329,0.01983598150604005
mass_X_d_2000_mass_pi_d_2_tau_pi_d_1000,cut4,2000.0,2.0,1000.0,0.073428292,0.0487065,8.395449982910156,11.01788505757141,14.97724875,20.768145103408813,28.026586376495363,16.544057694443325,0.05235610450498841
mass_X_d_2000_mass_pi_d_5_tau_pi_d_1,cut5,2000.0,5.0,1.0,0.0053785553,0.0487065,67.46530428662109,92.30642194500733,134.40558675,201.3738849638672,296.1319526293945,90.58365447933943,0.3788660694692763
mass_X_d_2000_mass_pi_d_5_tau_pi_d_2,cut5,2000.0,5.0,2.0,0.0915331601,0.0487065,3.972980643310547,5.413174235275268,7.853923125,11.767182268363953,17.20967062838745,5.300590477203772,0.02190151312982205
mass_X_d_2000_mass_pi_d_5_tau_pi_d_5,cut8,2000.0,5.0,5.0,0.2299760885,0.0487065,0.7250442930908203,1.0148574810791016,1.5403430625,2.4183448733196258,3.7104526380386353,1.0270486560234966,0.0027104123015789425
mass_X_d_2000_mass_pi_d_5_tau_pi_d_25,cut8,2000.0,5.0,25.0,0.4392143692,0.0487065,0.37971687286376954,0.5314965079908371,0.80670140625,1.260093400543213,1.940457863204956,0.5378246046986664,0.0014401630102012714
mass_X_d_2000_mass_pi_d_5_tau_pi_d_45,cut8,2000.0,5.0,45.0,0.4538541349,0.0487065,0.36574615773010255,0.5151545597577095,0.7770208828125,1.219926015229225,1.8717254080696106,0.520185525880628,0.0014025161385991388
mass_X_d_2000_mass_pi_d_5_tau_pi_d_60,cut8,2000.0,5.0,60.0,0.4214184507,0.0487065,0.39404581146240236,0.5550146774082184,0.83714296875,1.3143178982477188,2.016550249820709,0.5600382766628852,0.0015166477135047402
mass_X_d_2000_mass_pi_d_5_tau_pi_d_100,cut8,2000.0,5.0,100.0,0.3625986408,0.0487065,0.4601640528259277,0.6432295746130944,0.969563765625,1.5222191476192475,2.3355318949241637,0.6495438332640853,0.0018054940102789439
mass_X_d_2000_mass_pi_d_5_tau_pi_d_150,cut8,2000.0,5.0,150.0,0.2861457739,0.0487065,0.5808036082763672,0.8143742258605957,1.2237508125,1.9212938368320465,2.9197055536193846,0.821568743947886,0.0020083609040662037
mass_X_d_2000_mass_pi_d_5_tau_pi_d_225,cut8,2000.0,5.0,225.0,0.1850446821,0.0487065,0.8993787217712402,1.2610646729307176,1.894987265625,2.960030776502609,4.514458449874878,1.2694103736092,0.003315756791175366
mass_X_d_2000_mass_pi_d_5_tau_pi_d_300,cut8,2000.0,5.0,300.0,0.1297310367,0.0487065,1.277190024169922,1.7908129835243225,2.691034125,4.203481464168549,6.410893473403931,1.8068742771634654,0.005110455193417315
mass_X_d_2000_mass_pi_d_5_tau_pi_d_500,cut4,2000.0,5.0,500.0,0.2546878737,0.0487065,2.4273430082702636,3.185557159172058,4.330312265625,6.004610837562561,8.159177825294494,4.7830490679269575,0.01489821417349694
mass_X_d_2000_mass_pi_d_5_tau_pi_d_1000,cut4,2000.0,5.0,1000.0,0.1205560484,0.0487065,5.1198902929687495,6.706522961883545,9.1020271875,12.548728509429932,16.981113652908324,10.049624017454628,0.03227444389801441
mass_X_d_2000_mass_pi_d_10_tau_pi_d_1,cut5,2000.0,10.0,1.0,0.0096056173,0.0487065,37.760189774414066,51.55550918664551,74.93495025,112.27169313354491,164.1989342285156,50.54279374356814,0.20922744053610168
mass_X_d_2000_mass_pi_d_10_tau_pi_d_2,cut5,2000.0,10.0,2.0,0.1206129746,0.0487065,3.0120736970214845,4.103941419445038,5.954369625,8.921165957015992,13.047330980529786,4.023875981330859,0.01663007442210244
mass_X_d_2000_mass_pi_d_10_tau_pi_d_5,cut8,2000.0,10.0,5.0,0.2537532049,0.0487065,0.6562653878173829,0.9243518024139404,1.3942235625,2.188936745510101,3.358472814834595,0.9306938577702798,0.002459832918426089
mass_X_d_2000_mass_pi_d_10_tau_pi_d_25,cut8,2000.0,10.0,25.0,0.4696409139,0.0487065,0.35392478338623046,0.4985040897073746,0.75190659375,1.1804964439086914,1.8112287482185363,0.503085765092261,0.0013399748242417713
mass_X_d_2000_mass_pi_d_10_tau_pi_d_45,cut8,2000.0,10.0,45.0,0.4539831918,0.0487065,0.3661043811950684,0.5156591011576652,0.777781921875,1.2211208056812286,1.873558516319275,0.5202531164782829,0.0013953106963358883
mass_X_d_2000_mass_pi_d_10_tau_pi_d_60,cut8,2000.0,10.0,60.0,0.432884536,0.0487065,0.3840155544433594,0.5408870537080764,0.815833875,1.280862557888031,1.965219874420166,0.5457337196775917,0.001459354157529732
mass_X_d_2000_mass_pi_d_10_tau_pi_d_100,cut8,2000.0,10.0,100.0,0.392326378,0.0487065,0.42270368865966795,0.5953793829088211,0.89802609375,1.409904664618492,2.163208571422577,0.6016256472672251,0.0016268976762152736
mass_X_d_2000_mass_pi_d_10_tau_pi_d_150,cut8,2000.0,10.0,150.0,0.3035237126,0.0487065,0.5481978409423828,0.7703899862494469,1.15982353125,1.820927722852707,2.7938386854286192,0.7766172223530948,0.002136299300670922
mass_X_d_2000_mass_pi_d_10_tau_pi_d_225,cut8,2000.0,10.0,225.0,0.2072003291,0.0487065,0.804745298034668,1.1283742794542313,1.6955950312499999,2.6485736821689607,4.039443358898163,1.134596693206794,0.002541644699577549
mass_X_d_2000_mass_pi_d_10_tau_pi_d_300,cut8,2000.0,10.0,300.0,0.1694927145,0.0487065,0.9772336124267578,1.376436504020691,2.0761145625,3.2429576386184693,4.945961281093598,1.3872629567031582,0.0033387241091486406
mass_X_d_2000_mass_pi_d_10_tau_pi_d_500,cut4,2000.0,10.0,500.0,0.3072074996,0.0487065,2.0130672326660157,2.626865117231369,3.616457625,5.0147472467880245,6.860869710342407,3.9849035274486555,0.012064379506060067
mass_X_d_2000_mass_pi_d_10_tau_pi_d_1000,cut4,2000.0,10.0,1000.0,0.1555422762,0.0487065,3.965655642333984,5.204383465759277,7.074619125,9.809993437019347,13.238574745880127,7.80822462603636,0.024736818671908373
